%!PS-Adobe-3.0 EPSF-3.0
%%Creator: cairo 1.14.2 (http://cairographics.org)
%%CreationDate: Mon Apr  4 09:16:44 2016
%%Pages: 1
%%DocumentData: Clean7Bit
%%LanguageLevel: 2
%%BoundingBox: 0 -1 241 356
%%EndComments
%%BeginProlog
save
50 dict begin
/q { gsave } bind def
/Q { grestore } bind def
/cm { 6 array astore concat } bind def
/w { setlinewidth } bind def
/J { setlinecap } bind def
/j { setlinejoin } bind def
/M { setmiterlimit } bind def
/d { setdash } bind def
/m { moveto } bind def
/l { lineto } bind def
/c { curveto } bind def
/h { closepath } bind def
/re { exch dup neg 3 1 roll 5 3 roll moveto 0 rlineto
      0 exch rlineto 0 rlineto closepath } bind def
/S { stroke } bind def
/f { fill } bind def
/f* { eofill } bind def
/n { newpath } bind def
/W { clip } bind def
/W* { eoclip } bind def
/BT { } bind def
/ET { } bind def
/pdfmark where { pop globaldict /?pdfmark /exec load put }
    { globaldict begin /?pdfmark /pop load def /pdfmark
    /cleartomark load def end } ifelse
/BDC { mark 3 1 roll /BDC pdfmark } bind def
/EMC { mark /EMC pdfmark } bind def
/cairo_store_point { /cairo_point_y exch def /cairo_point_x exch def } def
/Tj { show currentpoint cairo_store_point } bind def
/TJ {
  {
    dup
    type /stringtype eq
    { show } { -0.001 mul 0 cairo_font_matrix dtransform rmoveto } ifelse
  } forall
  currentpoint cairo_store_point
} bind def
/cairo_selectfont { cairo_font_matrix aload pop pop pop 0 0 6 array astore
    cairo_font exch selectfont cairo_point_x cairo_point_y moveto } bind def
/Tf { pop /cairo_font exch def /cairo_font_matrix where
      { pop cairo_selectfont } if } bind def
/Td { matrix translate cairo_font_matrix matrix concatmatrix dup
      /cairo_font_matrix exch def dup 4 get exch 5 get cairo_store_point
      /cairo_font where { pop cairo_selectfont } if } bind def
/Tm { 2 copy 8 2 roll 6 array astore /cairo_font_matrix exch def
      cairo_store_point /cairo_font where { pop cairo_selectfont } if } bind def
/g { setgray } bind def
/rg { setrgbcolor } bind def
/d1 { setcachedevice } bind def
%%EndProlog
%%BeginSetup
%%EndSetup
%%Page: 1 1
%%BeginPageSetup
%%PageBoundingBox: 0 -1 241 356
%%EndPageSetup
q 0 -1 241 357 rectclip q
0 g
42.785 219.996 m 45.938 219.996 49.035 221.278 51.266 223.516 c 53.496 
225.75 54.785 228.836 54.785 231.996 c 54.785 235.157 53.496 238.254 51.266
 240.485 c 49.035 242.719 45.938 243.996 42.785 243.996 c 39.625 243.996
 36.531 242.719 34.297 240.485 c 32.066 238.254 30.785 235.157 30.785 231.996
 c 30.785 228.836 32.066 225.75 34.297 223.516 c 36.531 221.278 39.625 219.996
 42.785 219.996 c h
42.785 219.996 m f
197.488 219.996 m 200.648 219.996 203.738 221.278 205.969 223.516 c 208.211
 225.75 209.488 228.836 209.488 231.996 c 209.488 235.157 208.207 238.254
 205.969 240.485 c 203.738 242.719 200.648 243.996 197.488 243.996 c 194.328
 243.996 191.234 242.719 189 240.485 c 186.77 238.254 185.488 235.157 185.488
 231.996 c 185.488 228.836 186.77 225.75 189 223.516 c 191.234 221.278 194.328
 219.996 197.488 219.996 c h
197.488 219.996 m f
228.27 275.543 m 12 275.543 l 5.371 275.543 0 270.172 0 263.543 c 0 31.004
 l 0 24.375 5.371 19.004 12 19.004 c 18.934 19.004 l 18.934 12 l 18.934 
5.371 24.309 0 30.934 0 c 37.562 0 42.934 5.371 42.934 12 c 42.934 19.004
 l 197.336 19.004 l 197.336 12 l 197.336 5.371 202.707 0 209.336 0 c 215.961
 0 221.336 5.371 221.336 12 c 221.336 19.004 l 228.27 19.004 l 234.898 19.004
 240.27 24.375 240.27 31.004 c 240.27 263.543 l 240.27 270.172 234.898 275.543
 228.27 275.543 c h
24 251.543 m 216.27 251.543 l 216.27 43.004 l 24 43.004 l h
24 251.543 m f
37.266 68.637 m 37.266 62.008 42.637 56.637 49.266 56.637 c 191.004 56.637
 l 197.633 56.637 203.004 62.008 203.004 68.637 c 203.004 155.039 l 203.004
 200.735 165.828 237.907 120.137 237.907 c 74.441 237.907 37.266 200.735
 37.266 155.039 c h
61.266 155.039 m 61.266 187.5 87.676 213.907 120.137 213.907 c 152.598 
213.907 179.004 187.5 179.004 155.039 c 179.004 80.637 l 61.266 80.637 l
 h
61.266 155.039 m f
120.137 280.117 m 154.871 280.117 183.133 308.375 183.133 343.114 c 183.133
 349.742 177.758 355.114 171.133 355.114 c 69.137 355.114 l 62.512 355.114
 57.137 349.742 57.137 343.114 c 57.137 308.375 85.398 280.117 120.137 280.117
 c h
157.242 331.114 m 152.172 315.465 137.453 304.117 120.137 304.117 c 102.816
 304.117 88.098 315.465 83.027 331.114 c h
157.242 331.114 m f
158.531 129.879 m 131.336 129.879 l 129.609 134.391 125.254 137.602 120.137
 137.602 c 115.016 137.602 110.66 134.391 108.934 129.879 c 81.738 129.879
 l 75.109 129.879 69.738 124.504 69.738 117.879 c 69.738 97.477 l 69.738
 90.852 75.109 85.477 81.738 85.477 c 88.363 85.477 93.738 90.852 93.738
 97.477 c 93.738 105.879 l 146.531 105.879 l 146.531 97.477 l 146.531 90.852
 151.906 85.477 158.531 85.477 c 165.16 85.477 170.531 90.852 170.531 97.477
 c 170.531 117.879 l 170.531 124.504 165.16 129.879 158.531 129.879 c h
158.531 129.879 m f
120.137 142.27 m 125.484 142.27 130.512 144.352 134.293 148.133 c 140.531
 154.371 141.938 164.137 137.715 171.879 c 130.668 184.793 l 128.566 188.649
 124.527 191.047 120.133 191.047 c 115.742 191.047 111.703 188.649 109.598
 184.793 c 102.555 171.879 l 98.332 164.137 99.738 154.371 105.977 148.133
 c 109.758 144.348 114.785 142.27 120.137 142.27 c h
120.137 142.27 m f
Q Q
showpage
%%Trailer
end restore
%%EOF
