%!PS-Adobe-3.0 EPSF-3.0
%%Creator: cairo 1.14.2 (http://cairographics.org)
%%CreationDate: Mon Apr  4 09:16:02 2016
%%Pages: 1
%%DocumentData: Clean7Bit
%%LanguageLevel: 2
%%BoundingBox: 0 -1 322 368
%%EndComments
%%BeginProlog
save
50 dict begin
/q { gsave } bind def
/Q { grestore } bind def
/cm { 6 array astore concat } bind def
/w { setlinewidth } bind def
/J { setlinecap } bind def
/j { setlinejoin } bind def
/M { setmiterlimit } bind def
/d { setdash } bind def
/m { moveto } bind def
/l { lineto } bind def
/c { curveto } bind def
/h { closepath } bind def
/re { exch dup neg 3 1 roll 5 3 roll moveto 0 rlineto
      0 exch rlineto 0 rlineto closepath } bind def
/S { stroke } bind def
/f { fill } bind def
/f* { eofill } bind def
/n { newpath } bind def
/W { clip } bind def
/W* { eoclip } bind def
/BT { } bind def
/ET { } bind def
/pdfmark where { pop globaldict /?pdfmark /exec load put }
    { globaldict begin /?pdfmark /pop load def /pdfmark
    /cleartomark load def end } ifelse
/BDC { mark 3 1 roll /BDC pdfmark } bind def
/EMC { mark /EMC pdfmark } bind def
/cairo_store_point { /cairo_point_y exch def /cairo_point_x exch def } def
/Tj { show currentpoint cairo_store_point } bind def
/TJ {
  {
    dup
    type /stringtype eq
    { show } { -0.001 mul 0 cairo_font_matrix dtransform rmoveto } ifelse
  } forall
  currentpoint cairo_store_point
} bind def
/cairo_selectfont { cairo_font_matrix aload pop pop pop 0 0 6 array astore
    cairo_font exch selectfont cairo_point_x cairo_point_y moveto } bind def
/Tf { pop /cairo_font exch def /cairo_font_matrix where
      { pop cairo_selectfont } if } bind def
/Td { matrix translate cairo_font_matrix matrix concatmatrix dup
      /cairo_font_matrix exch def dup 4 get exch 5 get cairo_store_point
      /cairo_font where { pop cairo_selectfont } if } bind def
/Tm { 2 copy 8 2 roll 6 array astore /cairo_font_matrix exch def
      cairo_store_point /cairo_font where { pop cairo_selectfont } if } bind def
/g { setgray } bind def
/rg { setrgbcolor } bind def
/d1 { setcachedevice } bind def
%%EndProlog
%%BeginSetup
%%EndSetup
%%Page: 1 1
%%BeginPageSetup
%%PageBoundingBox: 0 -1 322 368
%%EndPageSetup
q 0 -1 322 369 rectclip q
0 g
315.609 108.303 m 311.457 110.701 308.484 114.568 307.246 119.201 c 306.004
 123.834 306.641 128.67 309.043 132.826 c 312.719 139.197 314.66 146.443
 314.66 153.775 c 314.66 165.189 309.984 176.002 302.02 183.803 c 307.375
 189.01 311.246 195.58 313.23 202.986 c 316.129 213.807 314.641 225.111 
309.043 234.818 c 307.461 237.557 306.625 240.65 306.625 243.771 c 306.625
 250.17 310.066 256.131 315.605 259.338 c 315.605 259.342 315.609 259.342
 315.613 259.346 c 321.352 262.662 323.316 270.002 320 275.74 c 316.684 
281.475 309.348 283.439 303.609 280.123 c 299.457 277.725 294.621 277.092
 289.988 278.33 c 285.355 279.572 281.484 282.541 279.086 286.701 c 271.605
 299.642 257.676 307.682 242.73 307.682 c 238.898 307.682 235.09 307.15 
231.414 306.115 c 226.785 324.248 210.312 337.693 190.758 337.693 c 185.961
 337.693 181.453 339.56 178.07 342.943 c 174.676 346.346 172.809 350.853
 172.809 355.646 c 172.809 362.275 167.434 367.646 160.809 367.646 c 154.18
 367.646 148.809 362.275 148.809 355.646 c 148.809 345.748 140.754 337.693
 130.855 337.693 c 119.648 337.693 109.113 333.33 101.184 325.4 c 95.773
 319.986 92.027 313.357 90.191 306.131 c 83.012 308.158 75.395 308.228 67.996
 306.244 c 57.172 303.346 48.125 296.4 42.527 286.701 c 39.324 281.158 33.355
 277.713 26.953 277.713 c 23.836 277.713 20.738 278.549 18.004 280.127 c
 12.262 283.439 4.926 281.475 1.613 275.736 c -1.703 269.998 0.262 262.658
 6 259.346 c 6.004 259.346 6.004 259.346 6.004 259.342 c 6.008 259.342 6.008
 259.342 6.012 259.342 c 14.574 254.385 17.516 243.389 12.574 234.818 c 
8.891 228.439 6.941 221.193 6.941 213.869 c 6.941 202.459 11.625 191.642
 19.59 183.842 c 14.238 178.635 10.363 172.064 8.379 164.662 c 5.48 153.838
 6.969 142.529 12.57 132.826 c 14.145 130.1 14.977 127.006 14.977 123.877
 c 14.977 117.467 11.539 111.498 6.004 108.307 c 0.266 104.994 -1.703 97.654
 1.609 91.916 c 4.922 86.174 12.258 84.205 18 87.517 c 18.008 87.521 18.016
 87.525 18.023 87.533 c 26.594 92.459 37.578 89.51 42.523 80.951 c 49.992
 68.006 63.922 59.967 78.883 59.967 c 82.715 59.967 86.523 60.498 90.199
 61.533 c 94.828 43.4 111.301 29.951 130.852 29.951 c 135.648 29.951 140.16
 28.084 143.543 24.701 c 146.938 21.303 148.805 16.791 148.805 12.002 c 
148.805 5.373 154.18 0.002 160.805 0.002 c 167.434 0.002 172.805 5.373 172.805
 12.002 c 172.805 21.9 180.859 29.951 190.758 29.951 c 201.965 29.951 212.5
 34.314 220.43 42.244 c 225.84 47.662 229.586 54.291 231.418 61.514 c 238.598
 59.486 246.219 59.42 253.613 61.4 c 264.434 64.303 273.48 71.244 279.086
 80.951 c 282.281 86.486 288.246 89.924 294.656 89.924 c 297.785 89.924 
300.883 89.092 303.609 87.517 c 309.352 84.205 316.691 86.174 320.004 91.916
 c 323.316 97.65 321.348 104.99 315.609 108.303 c h
233.781 281.267 m 236.516 282.846 239.613 283.682 242.73 283.682 c 249.133
 283.682 255.102 280.236 258.301 274.697 c 263.902 264.99 272.949 258.049
 283.773 255.146 c 283.91 255.111 284.043 255.076 284.18 255.041 c 283.16
 251.412 282.625 247.623 282.625 243.767 c 282.625 236.443 284.574 229.201
 288.254 222.818 c 290.652 218.666 291.289 213.826 290.047 209.193 c 288.809
 204.56 285.84 200.693 281.684 198.295 c 275.492 194.717 l 272.27 228.881
 254.074 258.752 227.547 277.674 c h
160.805 92.615 m 110.516 92.615 69.602 133.529 69.602 183.822 c 69.602 
234.111 110.516 275.025 160.805 275.025 c 211.094 275.025 252.008 234.111
 252.008 183.822 c 252.008 133.529 211.094 92.615 160.805 92.615 c h
118.16 308.435 m 121.551 311.826 126.059 313.693 130.855 313.693 c 142.57
 313.693 153.176 318.517 160.793 326.283 c 160.891 326.182 160.992 326.08
 161.094 325.978 c 169.016 318.057 179.551 313.693 190.758 313.693 c 200.66
 313.693 208.711 305.639 208.711 295.74 c 208.711 288.58 l 194.113 295.283
 177.891 299.025 160.805 299.025 c 143.723 299.025 127.496 295.283 112.902
 288.584 c 112.902 295.74 l 112.902 300.533 114.773 305.045 118.16 308.435
 c h
33.359 222.822 m 39.215 232.963 40.336 244.564 37.418 255.045 c 48.188 
257.834 57.617 264.846 63.312 274.697 c 65.711 278.85 69.578 281.822 74.211
 283.06 c 78.844 284.303 83.68 283.666 87.832 281.267 c 94.062 277.67 l 
67.535 258.752 49.34 228.881 46.121 194.721 c 39.926 198.295 l 34.387 201.494
 30.945 207.459 30.945 213.865 c 30.945 216.986 31.781 220.084 33.359 222.822
 c h
87.836 86.377 m 85.098 84.799 82.004 83.963 78.883 83.963 c 72.477 83.963
 66.512 87.404 63.309 92.951 c 57.449 103.092 47.965 109.865 37.426 112.576
 c 38.445 116.213 38.98 120.01 38.98 123.873 c 38.98 131.209 37.035 138.451
 33.359 144.826 c 30.961 148.978 30.324 153.814 31.562 158.447 c 32.805 
163.08 35.773 166.951 39.93 169.35 c 46.117 172.924 l 49.34 138.76 67.535
 108.889 94.059 89.971 c h
203.457 59.209 m 200.066 55.818 195.559 53.951 190.762 53.951 c 179.047
 53.951 168.441 49.127 160.824 41.357 c 160.723 41.463 160.621 41.56 160.523
 41.666 c 152.598 49.588 142.062 53.951 130.855 53.951 c 120.957 53.951 
112.902 62.006 112.902 71.904 c 112.902 79.057 l 127.5 72.357 143.723 68.615
 160.805 68.615 c 177.891 68.615 194.117 72.357 208.715 79.06 c 208.715 
71.904 l 208.711 67.111 206.844 62.6 203.457 59.209 c h
288.258 144.826 m 282.652 135.123 281.16 123.814 284.062 112.99 c 284.098
 112.853 284.137 112.721 284.172 112.588 c 273.402 109.799 263.984 102.791
 258.305 92.951 c 253.352 84.377 242.352 81.428 233.773 86.385 c 227.547
 89.971 l 254.074 108.889 272.27 138.76 275.488 172.924 c 281.688 169.346
 l 287.223 166.15 290.66 160.185 290.66 153.775 c 290.66 150.646 289.828
 147.553 288.258 144.826 c h
288.258 144.826 m f
160.805 258.049 m 119.875 258.049 86.574 224.752 86.574 183.822 c 86.574
 142.889 119.875 109.592 160.805 109.592 c 201.734 109.592 235.035 142.889
 235.035 183.822 c 235.035 224.752 201.734 258.049 160.805 258.049 c h
160.805 133.592 m 133.109 133.592 110.574 156.123 110.574 183.822 c 110.574
 211.517 133.109 234.053 160.805 234.053 c 188.504 234.053 211.035 211.517
 211.035 183.822 c 211.035 156.123 188.504 133.592 160.805 133.592 c h
160.805 133.592 m f
160.801 195.822 m 157.641 195.822 154.555 194.541 152.32 192.303 c 150.09
 190.072 148.801 186.982 148.801 183.822 c 148.801 180.662 150.09 177.568
 152.32 175.334 c 154.555 173.103 157.648 171.822 160.801 171.822 c 163.961
 171.822 167.059 173.103 169.289 175.334 c 171.523 177.568 172.801 180.662
 172.801 183.822 c 172.801 186.982 171.523 190.072 169.289 192.303 c 167.059
 194.545 163.961 195.822 160.801 195.822 c h
160.801 195.822 m f
Q Q
showpage
%%Trailer
end restore
%%EOF
