%!PS-Adobe-3.0 EPSF-3.0
%%Creator: cairo 1.14.2 (http://cairographics.org)
%%CreationDate: Mon Apr  4 09:16:53 2016
%%Pages: 1
%%DocumentData: Clean7Bit
%%LanguageLevel: 2
%%BoundingBox: 0 -1 385 337
%%EndComments
%%BeginProlog
save
50 dict begin
/q { gsave } bind def
/Q { grestore } bind def
/cm { 6 array astore concat } bind def
/w { setlinewidth } bind def
/J { setlinecap } bind def
/j { setlinejoin } bind def
/M { setmiterlimit } bind def
/d { setdash } bind def
/m { moveto } bind def
/l { lineto } bind def
/c { curveto } bind def
/h { closepath } bind def
/re { exch dup neg 3 1 roll 5 3 roll moveto 0 rlineto
      0 exch rlineto 0 rlineto closepath } bind def
/S { stroke } bind def
/f { fill } bind def
/f* { eofill } bind def
/n { newpath } bind def
/W { clip } bind def
/W* { eoclip } bind def
/BT { } bind def
/ET { } bind def
/pdfmark where { pop globaldict /?pdfmark /exec load put }
    { globaldict begin /?pdfmark /pop load def /pdfmark
    /cleartomark load def end } ifelse
/BDC { mark 3 1 roll /BDC pdfmark } bind def
/EMC { mark /EMC pdfmark } bind def
/cairo_store_point { /cairo_point_y exch def /cairo_point_x exch def } def
/Tj { show currentpoint cairo_store_point } bind def
/TJ {
  {
    dup
    type /stringtype eq
    { show } { -0.001 mul 0 cairo_font_matrix dtransform rmoveto } ifelse
  } forall
  currentpoint cairo_store_point
} bind def
/cairo_selectfont { cairo_font_matrix aload pop pop pop 0 0 6 array astore
    cairo_font exch selectfont cairo_point_x cairo_point_y moveto } bind def
/Tf { pop /cairo_font exch def /cairo_font_matrix where
      { pop cairo_selectfont } if } bind def
/Td { matrix translate cairo_font_matrix matrix concatmatrix dup
      /cairo_font_matrix exch def dup 4 get exch 5 get cairo_store_point
      /cairo_font where { pop cairo_selectfont } if } bind def
/Tm { 2 copy 8 2 roll 6 array astore /cairo_font_matrix exch def
      cairo_store_point /cairo_font where { pop cairo_selectfont } if } bind def
/g { setgray } bind def
/rg { setrgbcolor } bind def
/d1 { setcachedevice } bind def
%%EndProlog
%%BeginSetup
%%EndSetup
%%Page: 1 1
%%BeginPageSetup
%%PageBoundingBox: 0 -1 385 337
%%EndPageSetup
q 0 -1 385 338 rectclip q
0 g
372.332 180.03 m 360.203 180.03 350.332 189.898 350.332 202.023 c 350.336
 214.304 345.555 225.859 336.863 234.554 c 332.922 238.491 328.398 241.632
 323.457 243.886 c 325.023 261.339 316.441 278.898 300.668 288.03 c 295.59
 290.972 291.957 295.71 290.441 301.366 c 288.926 307.046 289.703 312.972
 292.637 318.054 c 292.637 318.058 292.637 318.058 292.641 318.058 c 295.953
 323.8 293.988 331.136 288.25 334.452 c 282.512 337.765 275.172 335.8 271.859
 330.066 c 268.918 324.976 264.172 321.335 258.496 319.812 c 252.82 318.292
 246.895 319.073 241.797 322.019 c 231.148 328.159 218.754 329.788 206.887
 326.605 c 201.504 325.155 196.531 322.804 192.121 319.667 c 177.793 329.741
 158.293 331.089 142.488 321.991 c 137.41 319.066 131.496 318.292 125.84
 319.808 c 120.152 321.335 115.406 324.976 112.469 330.066 c 109.156 335.804
 101.816 337.769 96.074 334.456 c 90.336 331.144 88.371 323.804 91.684 318.066
 c 94.621 312.976 95.402 307.046 93.883 301.37 c 92.363 295.695 88.727 290.952
 83.637 288.015 c 72.988 281.866 65.379 271.945 62.207 260.085 c 60.766 
254.702 60.312 249.218 60.828 243.812 c 44.93 236.445 34.016 220.234 33.992
 202.007 c 33.984 196.132 31.695 190.616 27.559 186.48 c 23.395 182.323 
17.867 180.034 11.996 180.034 c 5.371 180.03 0 174.659 0 168.03 c 0 161.405
 5.375 156.03 12 156.03 c 17.875 156.03 23.398 153.745 27.551 149.593 c 
31.707 145.437 33.996 139.909 33.992 134.03 c 34 121.741 38.781 110.195 
47.473 101.495 c 51.418 97.562 55.941 94.429 60.867 92.175 c 59.301 74.73
 67.883 57.171 83.66 48.042 c 88.738 45.097 92.371 40.359 93.887 34.702 
c 95.406 29.027 94.633 23.109 91.711 18.03 c 91.703 18.023 91.695 18.011
 91.691 17.999 c 88.379 12.257 90.348 4.921 96.086 1.609 c 97.977 0.519 
100.039 -0.001 102.074 -0.001 c 106.219 -0.001 110.254 2.152 112.477 5.999
 c 112.477 6.003 112.48 6.007 112.48 6.011 c 115.418 11.093 120.156 14.73
 125.832 16.253 c 131.504 17.773 137.434 16.991 142.52 14.062 c 153.16 7.909
 165.559 6.277 177.438 9.464 c 182.82 10.913 187.797 13.261 192.207 16.398
 c 206.535 6.327 226.031 4.98 241.824 14.07 c 246.91 16.991 252.836 17.769
 258.488 16.257 c 264.172 14.73 268.918 11.089 271.852 6.007 c 271.852 6.007
 271.855 6.003 271.855 6.003 c 274.078 2.152 278.109 -0.001 282.258 -0.001
 c 284.293 -0.001 286.359 0.519 288.246 1.609 c 293.988 4.925 295.953 12.261
 292.641 18.003 c 289.703 23.089 288.922 29.019 290.441 34.695 c 291.965
 40.37 295.602 45.116 300.691 48.054 c 311.324 54.195 318.938 64.109 322.129
 75.988 c 323.566 81.37 324.02 86.855 323.504 92.257 c 339.395 99.624 350.309
 115.839 350.336 134.073 c 350.344 139.929 352.629 145.441 356.773 149.585
 c 360.934 153.738 366.461 156.03 372.336 156.03 c 378.965 156.03 384.336
 161.402 384.336 168.03 c 384.336 174.655 378.961 180.03 372.332 180.03 
c h
254.191 157.64 m 262.656 152.761 269.73 145.675 274.656 137.148 c 289.152
 112.038 l 260.145 112.038 l 250.312 112.038 240.637 114.628 232.172 119.523
 c 228.457 121.671 223.879 121.675 220.164 119.527 c 216.449 117.382 214.16
 113.417 214.164 109.128 c 214.172 99.343 211.574 89.671 206.652 81.148 
c 192.164 56.042 l 177.668 81.155 l 172.742 89.679 170.145 99.351 170.152
 109.12 c 170.156 113.409 167.867 117.374 164.152 119.523 c 162.297 120.593
 160.223 121.128 158.152 121.128 c 156.078 121.128 154.004 120.593 152.145
 119.515 c 143.684 114.624 134.016 112.038 124.18 112.038 c 95.18 112.038
 l 109.676 137.148 l 114.59 145.667 121.668 152.753 130.137 157.636 c 133.855
 159.777 136.145 163.741 136.145 168.03 c 136.145 172.323 133.855 176.284
 130.137 178.429 c 121.672 183.304 114.598 190.39 109.676 198.917 c 95.18
 224.023 l 124.176 224.023 l 134.012 224.023 143.684 221.437 152.148 216.542
 c 155.863 214.394 160.441 214.39 164.156 216.538 c 167.871 218.683 170.16
 222.648 170.156 226.937 c 170.148 236.718 172.746 246.394 177.668 254.909
 c 192.168 280.023 l 206.664 254.913 l 211.586 246.386 214.184 236.718 214.176
 226.948 c 214.172 222.659 216.461 218.695 220.176 216.546 c 223.891 214.402
 228.469 214.405 232.184 216.55 c 240.641 221.441 250.305 224.027 260.145
 224.027 c 289.148 224.027 l 274.648 198.913 l 269.73 190.394 262.656 183.312
 254.191 178.433 c 250.477 176.288 248.184 172.327 248.184 168.034 c 248.184
 163.745 250.477 159.78 254.191 157.64 c h
229.805 301.23 m 240.441 295.081 252.836 293.448 264.707 296.628 c 265.398
 296.816 266.078 297.015 266.758 297.23 c 266.906 296.538 267.074 295.847
 267.258 295.163 c 270.43 283.32 278.023 273.409 288.641 267.261 c 295.633
 263.21 299.684 255.726 299.672 248.03 c 260.156 248.027 l 260.141 248.027
 l 252.004 248.027 243.941 246.784 236.246 244.378 c 234.477 252.253 231.52
 259.863 227.445 266.913 c 207.684 301.148 l 209.367 302.128 211.18 302.905
 213.113 303.425 c 218.781 304.945 224.715 304.163 229.805 301.23 c h
85.395 253.878 m 86.91 259.546 90.547 264.288 95.641 267.23 c 106.277 273.374
 113.891 283.292 117.066 295.159 c 117.254 295.847 117.418 296.534 117.57
 297.226 c 118.246 297.011 118.93 296.812 119.621 296.624 c 131.473 293.448
 143.848 295.073 154.465 301.195 c 161.469 305.222 169.977 304.988 176.641
 301.128 c 156.883 266.913 l 152.812 259.863 149.852 252.249 148.086 244.374
 c 140.387 246.78 132.32 248.027 124.18 248.027 c 84.648 248.027 l 84.637
 249.98 84.875 251.941 85.395 253.878 c h
44.52 166.562 m 44.02 167.066 43.504 167.554 42.984 168.03 c 43.504 168.507
 44.02 168.995 44.52 169.499 c 53.188 178.163 57.973 189.695 57.992 201.972
 c 58.004 210.046 62.453 217.288 69.137 221.132 c 88.891 186.921 l 92.961
 179.866 98.074 173.499 104.008 168.034 c 98.07 162.566 92.957 156.198 88.891
 149.144 c 69.125 114.913 l 67.434 115.878 65.852 117.062 64.438 118.472
 c 60.285 122.628 57.996 128.155 57.992 134.03 c 57.996 146.32 53.211 157.874
 44.52 166.562 c h
154.52 34.843 m 147.434 38.933 139.566 41.023 131.602 41.023 c 127.605 
41.023 123.582 40.495 119.617 39.433 c 118.93 39.249 118.246 39.05 117.574
 38.835 c 117.422 39.527 117.254 40.218 117.07 40.909 c 113.898 52.749 106.305
 62.659 95.688 68.812 c 88.703 72.855 84.652 80.327 84.668 88.038 c 124.184
 88.038 l 132.32 88.038 140.387 89.28 148.086 91.691 c 149.852 83.816 152.809
 76.21 156.883 69.155 c 176.645 34.921 l 174.961 33.937 173.145 33.163 171.207
 32.64 c 165.535 31.12 159.613 31.898 154.52 34.843 c h
298.945 82.198 m 297.418 76.523 293.777 71.777 288.691 68.839 c 278.051
 62.695 270.438 52.777 267.258 40.905 c 267.074 40.218 266.906 39.527 266.754
 38.835 c 266.074 39.054 265.395 39.253 264.703 39.437 c 252.859 42.605 
240.484 40.984 229.855 34.87 c 222.855 30.843 214.355 31.081 207.691 34.937
 c 227.438 69.152 l 231.512 76.202 234.469 83.816 236.234 91.695 c 243.938
 89.284 252 88.042 260.141 88.042 c 260.152 88.042 l 299.684 88.038 l 299.695
 86.089 299.461 84.128 298.945 82.198 c h
339.801 166.558 m 331.129 157.882 326.344 146.351 326.336 134.101 c 326.324
 126.027 321.871 118.78 315.191 114.937 c 295.438 149.148 l 291.367 156.206
 286.254 162.57 280.32 168.038 c 286.258 173.503 291.363 179.866 295.434
 186.917 c 315.199 221.152 l 316.895 220.187 318.473 218.999 319.891 217.585
 c 324.047 213.425 326.336 207.902 326.332 202.023 c 326.332 188.581 332.133
 176.464 341.363 168.046 c 340.832 167.566 340.312 167.07 339.801 166.558
 c h
339.801 166.558 m f
203.988 212.155 m 192.199 215.312 179.891 213.695 169.324 207.593 c 158.758
 201.491 151.199 191.644 148.043 179.859 c 144.883 168.07 146.504 155.761
 152.605 145.195 c 158.707 134.628 168.555 127.07 180.34 123.913 c 184.277
 122.859 188.27 122.335 192.238 122.335 c 200.152 122.335 207.965 124.413
 215.004 128.476 c 236.816 141.07 244.316 169.062 231.723 190.874 c 225.621
 201.441 215.773 208.999 203.988 212.155 c h
213.105 162.425 m 211.605 156.831 208.02 152.155 203.004 149.261 c 192.652
 143.284 179.367 146.843 173.391 157.195 c 170.496 162.21 169.727 168.054
 171.223 173.644 c 172.723 179.238 176.309 183.913 181.324 186.808 c 184.664
 188.738 188.371 189.722 192.129 189.722 c 194.012 189.722 195.906 189.476
 197.773 188.976 c 203.367 187.476 208.043 183.89 210.938 178.874 c 213.832
 173.859 214.602 168.015 213.105 162.425 c h
213.105 162.425 m f
Q Q
showpage
%%Trailer
end restore
%%EOF
