%!PS-Adobe-3.0 EPSF-3.0
%%Creator: cairo 1.14.2 (http://cairographics.org)
%%CreationDate: Mon Apr  4 09:16:13 2016
%%Pages: 1
%%DocumentData: Clean7Bit
%%LanguageLevel: 2
%%BoundingBox: 0 -1 358 358
%%EndComments
%%BeginProlog
save
50 dict begin
/q { gsave } bind def
/Q { grestore } bind def
/cm { 6 array astore concat } bind def
/w { setlinewidth } bind def
/J { setlinecap } bind def
/j { setlinejoin } bind def
/M { setmiterlimit } bind def
/d { setdash } bind def
/m { moveto } bind def
/l { lineto } bind def
/c { curveto } bind def
/h { closepath } bind def
/re { exch dup neg 3 1 roll 5 3 roll moveto 0 rlineto
      0 exch rlineto 0 rlineto closepath } bind def
/S { stroke } bind def
/f { fill } bind def
/f* { eofill } bind def
/n { newpath } bind def
/W { clip } bind def
/W* { eoclip } bind def
/BT { } bind def
/ET { } bind def
/pdfmark where { pop globaldict /?pdfmark /exec load put }
    { globaldict begin /?pdfmark /pop load def /pdfmark
    /cleartomark load def end } ifelse
/BDC { mark 3 1 roll /BDC pdfmark } bind def
/EMC { mark /EMC pdfmark } bind def
/cairo_store_point { /cairo_point_y exch def /cairo_point_x exch def } def
/Tj { show currentpoint cairo_store_point } bind def
/TJ {
  {
    dup
    type /stringtype eq
    { show } { -0.001 mul 0 cairo_font_matrix dtransform rmoveto } ifelse
  } forall
  currentpoint cairo_store_point
} bind def
/cairo_selectfont { cairo_font_matrix aload pop pop pop 0 0 6 array astore
    cairo_font exch selectfont cairo_point_x cairo_point_y moveto } bind def
/Tf { pop /cairo_font exch def /cairo_font_matrix where
      { pop cairo_selectfont } if } bind def
/Td { matrix translate cairo_font_matrix matrix concatmatrix dup
      /cairo_font_matrix exch def dup 4 get exch 5 get cairo_store_point
      /cairo_font where { pop cairo_selectfont } if } bind def
/Tm { 2 copy 8 2 roll 6 array astore /cairo_font_matrix exch def
      cairo_store_point /cairo_font where { pop cairo_selectfont } if } bind def
/g { setgray } bind def
/rg { setrgbcolor } bind def
/d1 { setcachedevice } bind def
%%EndProlog
%%BeginSetup
%%EndSetup
%%Page: 1 1
%%BeginPageSetup
%%PageBoundingBox: 0 -1 358 358
%%EndPageSetup
q 0 -1 358 359 rectclip q
0 g
178.609 299.284 m 112.07 299.284 57.934 245.151 57.934 178.608 c 57.934
 112.069 112.066 57.932 178.609 57.932 c 245.148 57.932 299.285 112.069 
299.285 178.608 c 299.285 245.151 245.148 299.284 178.609 299.284 c h
275.164 173.8 m 274.074 151.675 264.676 130.69 249.047 114.995 c 248.988
 114.932 248.926 114.874 248.867 114.811 c 221.664 87.612 177.41 87.612 
150.207 114.811 c 129.387 135.636 129.387 169.518 150.207 190.343 c 165.934
 206.065 191.516 206.065 207.238 190.343 c 218.883 178.702 218.883 159.757
 207.238 148.112 c 199.547 140.421 187.422 139.792 179 146.229 c 175.766
 148.706 172.684 153.921 172.527 157.991 c 172.375 162.038 173.832 165.874
 176.602 168.776 c 180.934 173.319 181.621 180.374 177.594 185.19 c 173.004
 190.675 164.824 190.944 159.879 186.003 c 152.551 178.675 148.516 168.936
 148.516 158.573 c 148.516 148.21 152.551 138.471 159.879 131.143 c 177.617
 113.409 206.477 113.409 224.211 131.143 c 245.211 152.143 245.211 186.315
 224.211 207.315 c 199.129 232.393 158.32 232.393 133.238 207.315 c 103.059
 177.132 103.059 128.022 133.238 97.843 c 136.859 94.225 140.703 90.971 
144.73 88.065 c 107.184 102.163 80.656 138.971 81.98 181.671 c 83.578 233.042
 125.758 274.511 177.152 275.272 c 231.121 276.073 275.285 232.401 275.285
 178.608 c 275.285 176.995 275.246 175.393 275.164 173.8 c h
275.164 173.8 m f
178.609 305.6 m 185.238 305.6 190.609 310.971 190.609 317.6 c 190.609 345.218
 l 190.609 351.846 185.238 357.218 178.609 357.218 c 171.98 357.218 166.609
 351.846 166.609 345.218 c 166.609 317.6 l 166.609 310.971 171.98 305.6 
178.609 305.6 c h
178.609 305.6 m f
178.609 51.616 m 171.98 51.616 166.609 46.245 166.609 39.616 c 166.609 
11.999 l 166.609 5.374 171.98 -0.001 178.609 -0.001 c 185.238 -0.001 190.609
 5.374 190.609 11.999 c 190.609 39.616 l 190.609 46.245 185.238 51.616 178.609
 51.616 c h
178.609 51.616 m f
98.723 292.979 m 100.945 289.128 104.977 286.975 109.125 286.975 c 111.16
 286.975 113.223 287.495 115.113 288.585 c 120.852 291.901 122.82 299.241
 119.504 304.979 c 105.695 328.897 l 102.383 334.636 95.043 336.604 89.305
 333.288 c 83.566 329.975 81.598 322.636 84.914 316.897 c h
98.723 292.979 m f
258.496 64.237 m 255.184 69.979 247.844 71.944 242.105 68.632 c 236.363
 65.315 234.398 57.979 237.711 52.237 c 251.523 28.319 l 253.742 24.471 
257.777 22.319 261.926 22.319 c 263.961 22.319 266.023 22.839 267.914 23.929
 c 273.652 27.241 275.621 34.581 272.305 40.319 c h
258.496 64.237 m f
28.32 251.522 m 52.238 237.714 l 54.129 236.62 56.191 236.104 58.227 236.104
 c 62.375 236.104 66.41 238.253 68.633 242.104 c 71.945 247.843 69.977 255.182
 64.238 258.495 c 40.32 272.304 l 34.582 275.62 27.242 273.651 23.93 267.913
 c 20.613 262.175 22.582 254.835 28.32 251.522 c h
28.32 251.522 m f
328.898 105.694 m 304.98 119.507 l 299.238 122.819 291.902 120.854 288.586
 115.112 c 285.273 109.374 287.238 102.034 292.98 98.721 c 316.898 84.913
 l 318.785 83.819 320.848 83.304 322.887 83.304 c 327.031 83.304 331.066
 85.456 333.289 89.304 c 336.602 95.042 334.637 102.382 328.898 105.694 
c h
328.898 105.694 m f
51.617 178.608 m 51.617 185.237 46.246 190.608 39.617 190.608 c 12 190.608
 l 5.371 190.608 0 185.237 0 178.608 c 0 171.983 5.371 166.608 12 166.608
 c 39.617 166.608 l 46.246 166.608 51.617 171.983 51.617 178.608 c h
51.617 178.608 m f
345.219 190.608 m 317.602 190.608 l 310.973 190.608 305.602 185.237 305.602
 178.608 c 305.602 171.983 310.973 166.608 317.602 166.608 c 345.219 166.608
 l 351.844 166.608 357.219 171.983 357.219 178.608 c 357.219 185.237 351.844
 190.608 345.219 190.608 c h
345.219 190.608 m f
52.238 119.507 m 28.32 105.694 l 22.582 102.382 20.617 95.042 23.93 89.304
 c 26.152 85.452 30.188 83.304 34.332 83.304 c 36.367 83.304 38.434 83.819
 40.32 84.913 c 64.238 98.721 l 69.977 102.034 71.945 109.374 68.633 115.112
 c 65.316 120.854 57.98 122.819 52.238 119.507 c h
52.238 119.507 m f
298.988 236.1 m 301.027 236.1 303.09 236.62 304.977 237.71 c 328.895 251.518
 l 334.637 254.835 336.602 262.175 333.289 267.913 c 329.973 273.651 322.637
 275.616 316.895 272.304 c 292.977 258.495 l 287.238 255.182 285.273 247.843
 288.586 242.104 c 290.809 238.253 294.844 236.1 298.988 236.1 c h
298.988 236.1 m f
115.113 68.632 m 109.375 71.948 102.035 69.979 98.723 64.241 c 84.914 40.323
 l 81.598 34.581 83.566 27.245 89.305 23.929 c 91.195 22.839 93.258 22.319
 95.293 22.319 c 99.441 22.319 103.473 24.471 105.695 28.323 c 119.504 52.241
 l 122.82 57.979 120.852 65.319 115.113 68.632 c h
115.113 68.632 m f
242.105 288.585 m 243.996 287.495 246.059 286.975 248.094 286.975 c 252.242
 286.975 256.273 289.128 258.496 292.979 c 272.305 316.893 l 275.621 322.636
 273.652 329.975 267.914 333.288 c 262.176 336.604 254.836 334.636 251.523
 328.893 c 237.711 304.979 l 234.398 299.237 236.367 291.897 242.105 288.585
 c h
242.105 288.585 m f
Q Q
showpage
%%Trailer
end restore
%%EOF
