%!PS-Adobe-3.0 EPSF-3.0
%%Creator: cairo 1.14.2 (http://cairographics.org)
%%CreationDate: Mon Apr  4 09:16:58 2016
%%Pages: 1
%%DocumentData: Clean7Bit
%%LanguageLevel: 2
%%BoundingBox: 0 -1 372 325
%%EndComments
%%BeginProlog
save
50 dict begin
/q { gsave } bind def
/Q { grestore } bind def
/cm { 6 array astore concat } bind def
/w { setlinewidth } bind def
/J { setlinecap } bind def
/j { setlinejoin } bind def
/M { setmiterlimit } bind def
/d { setdash } bind def
/m { moveto } bind def
/l { lineto } bind def
/c { curveto } bind def
/h { closepath } bind def
/re { exch dup neg 3 1 roll 5 3 roll moveto 0 rlineto
      0 exch rlineto 0 rlineto closepath } bind def
/S { stroke } bind def
/f { fill } bind def
/f* { eofill } bind def
/n { newpath } bind def
/W { clip } bind def
/W* { eoclip } bind def
/BT { } bind def
/ET { } bind def
/pdfmark where { pop globaldict /?pdfmark /exec load put }
    { globaldict begin /?pdfmark /pop load def /pdfmark
    /cleartomark load def end } ifelse
/BDC { mark 3 1 roll /BDC pdfmark } bind def
/EMC { mark /EMC pdfmark } bind def
/cairo_store_point { /cairo_point_y exch def /cairo_point_x exch def } def
/Tj { show currentpoint cairo_store_point } bind def
/TJ {
  {
    dup
    type /stringtype eq
    { show } { -0.001 mul 0 cairo_font_matrix dtransform rmoveto } ifelse
  } forall
  currentpoint cairo_store_point
} bind def
/cairo_selectfont { cairo_font_matrix aload pop pop pop 0 0 6 array astore
    cairo_font exch selectfont cairo_point_x cairo_point_y moveto } bind def
/Tf { pop /cairo_font exch def /cairo_font_matrix where
      { pop cairo_selectfont } if } bind def
/Td { matrix translate cairo_font_matrix matrix concatmatrix dup
      /cairo_font_matrix exch def dup 4 get exch 5 get cairo_store_point
      /cairo_font where { pop cairo_selectfont } if } bind def
/Tm { 2 copy 8 2 roll 6 array astore /cairo_font_matrix exch def
      cairo_store_point /cairo_font where { pop cairo_selectfont } if } bind def
/g { setgray } bind def
/rg { setrgbcolor } bind def
/d1 { setcachedevice } bind def
%%EndProlog
%%BeginSetup
%%EndSetup
%%Page: 1 1
%%BeginPageSetup
%%PageBoundingBox: 0 -1 372 325
%%EndPageSetup
q 0 -1 372 326 rectclip q
0 g
369.48 17.999 m 314.625 113.01 l 301.434 135.866 278.125 149.795 251.914
 150.639 c 264.395 173.803 264.023 201.042 250.789 223.959 c 195.938 318.971
 l 193.793 322.682 189.832 324.971 185.543 324.971 c 181.258 324.971 177.293
 322.682 175.152 318.971 c 120.297 223.959 l 107.066 201.042 106.691 173.803
 119.172 150.639 c 92.965 149.795 69.656 135.866 56.461 113.01 c 1.609 17.999
 l -0.535 14.288 -0.535 9.713 1.609 5.999 c 3.75 2.288 7.711 -0.001 12 -0.001
 c 121.707 -0.001 l 148.031 -0.001 171.691 13.155 185.543 35.327 c 199.395
 13.155 223.059 -0.001 249.379 -0.001 c 359.09 -0.001 l 363.375 -0.001 367.336
 2.288 369.48 5.999 c 371.625 9.713 371.625 14.288 369.48 17.999 c h
141.082 211.959 m 185.543 288.971 l 230.008 211.959 l 239.289 195.885 239.289
 176.694 230.008 160.62 c 220.727 144.545 204.105 134.948 185.543 134.948
 c 166.984 134.948 150.363 144.545 141.082 160.62 c 131.801 176.694 131.801
 195.885 141.082 211.959 c h
166.172 49.67 m 156.891 33.596 140.27 23.999 121.707 23.999 c 32.785 23.999
 l 77.246 101.01 l 86.527 117.084 103.148 126.682 121.707 126.682 c 140.27
 126.682 156.891 117.084 166.172 101.01 c 175.453 84.936 175.453 65.745 
166.172 49.67 c h
249.379 23.999 m 230.82 23.999 214.195 33.596 204.918 49.67 c 195.637 65.745
 195.637 84.936 204.918 101.01 c 214.199 117.084 230.82 126.682 249.379 
126.682 c 267.938 126.682 284.562 117.084 293.84 101.01 c 338.305 23.999
 l h
249.379 23.999 m f
121.707 106.245 m 104.668 106.245 90.805 92.381 90.805 75.342 c 90.805 
58.303 104.668 44.44 121.707 44.44 c 138.746 44.44 152.609 58.303 152.609
 75.342 c 152.609 92.381 138.75 106.245 121.707 106.245 c h
121.707 68.44 m 117.902 68.44 114.805 71.534 114.805 75.342 c 114.805 79.147
 117.902 82.245 121.707 82.245 c 125.516 82.245 128.609 79.147 128.609 75.342
 c 128.609 71.534 125.516 68.44 121.707 68.44 c h
121.707 68.44 m f
249.379 106.245 m 232.34 106.245 218.477 92.381 218.477 75.342 c 218.477
 58.303 232.34 44.44 249.379 44.44 c 266.418 44.44 280.281 58.303 280.281
 75.342 c 280.281 92.381 266.418 106.245 249.379 106.245 c h
249.379 68.44 m 245.574 68.44 242.477 71.534 242.477 75.342 c 242.477 79.147
 245.574 82.245 249.379 82.245 c 253.188 82.245 256.281 79.147 256.281 75.342
 c 256.281 71.534 253.188 68.44 249.379 68.44 c h
249.379 68.44 m f
185.543 155.389 m 202.582 155.389 216.445 169.252 216.445 186.292 c 216.445
 203.331 202.582 217.194 185.543 217.194 c 168.504 217.194 154.641 203.331
 154.641 186.292 c 154.641 169.252 168.504 155.389 185.543 155.389 c h
185.543 193.194 m 189.348 193.194 192.445 190.096 192.445 186.292 c 192.445
 182.483 189.348 179.389 185.543 179.389 c 181.738 179.389 178.641 182.483
 178.641 186.292 c 178.641 190.096 181.738 193.194 185.543 193.194 c h
185.543 193.194 m f
Q Q
showpage
%%Trailer
end restore
%%EOF
