%!PS-Adobe-3.0 EPSF-3.0
%%Creator: cairo 1.14.2 (http://cairographics.org)
%%CreationDate: Mon Apr  4 09:15:51 2016
%%Pages: 1
%%DocumentData: Clean7Bit
%%LanguageLevel: 2
%%BoundingBox: 0 -1 234 377
%%EndComments
%%BeginProlog
save
50 dict begin
/q { gsave } bind def
/Q { grestore } bind def
/cm { 6 array astore concat } bind def
/w { setlinewidth } bind def
/J { setlinecap } bind def
/j { setlinejoin } bind def
/M { setmiterlimit } bind def
/d { setdash } bind def
/m { moveto } bind def
/l { lineto } bind def
/c { curveto } bind def
/h { closepath } bind def
/re { exch dup neg 3 1 roll 5 3 roll moveto 0 rlineto
      0 exch rlineto 0 rlineto closepath } bind def
/S { stroke } bind def
/f { fill } bind def
/f* { eofill } bind def
/n { newpath } bind def
/W { clip } bind def
/W* { eoclip } bind def
/BT { } bind def
/ET { } bind def
/pdfmark where { pop globaldict /?pdfmark /exec load put }
    { globaldict begin /?pdfmark /pop load def /pdfmark
    /cleartomark load def end } ifelse
/BDC { mark 3 1 roll /BDC pdfmark } bind def
/EMC { mark /EMC pdfmark } bind def
/cairo_store_point { /cairo_point_y exch def /cairo_point_x exch def } def
/Tj { show currentpoint cairo_store_point } bind def
/TJ {
  {
    dup
    type /stringtype eq
    { show } { -0.001 mul 0 cairo_font_matrix dtransform rmoveto } ifelse
  } forall
  currentpoint cairo_store_point
} bind def
/cairo_selectfont { cairo_font_matrix aload pop pop pop 0 0 6 array astore
    cairo_font exch selectfont cairo_point_x cairo_point_y moveto } bind def
/Tf { pop /cairo_font exch def /cairo_font_matrix where
      { pop cairo_selectfont } if } bind def
/Td { matrix translate cairo_font_matrix matrix concatmatrix dup
      /cairo_font_matrix exch def dup 4 get exch 5 get cairo_store_point
      /cairo_font where { pop cairo_selectfont } if } bind def
/Tm { 2 copy 8 2 roll 6 array astore /cairo_font_matrix exch def
      cairo_store_point /cairo_font where { pop cairo_selectfont } if } bind def
/g { setgray } bind def
/rg { setrgbcolor } bind def
/d1 { setcachedevice } bind def
%%EndProlog
%%BeginSetup
%%EndSetup
%%Page: 1 1
%%BeginPageSetup
%%PageBoundingBox: 0 -1 234 377
%%EndPageSetup
q 0 -1 234 378 rectclip q
0 g
33.543 230.188 m 33.543 187.942 l 33.543 142.067 70.867 104.742 116.742
 104.742 c 162.621 104.742 199.941 142.067 199.941 187.942 c 199.941 230.188
 l 199.941 264.504 210.16 297.629 229.488 325.985 c 231.992 329.66 232.258
 334.418 230.18 338.352 c 228.102 342.281 224.02 344.742 219.57 344.742 
c 199.293 344.742 180.23 339.442 163.676 330.176 c 125.445 372.758 l 123.172
 375.293 119.93 376.742 116.523 376.742 c 116.52 376.742 l 113.113 376.742
 109.871 375.297 107.598 372.766 c 69.469 330.367 l 52.992 339.516 34.055
 344.742 13.914 344.742 c 9.465 344.742 5.383 342.281 3.305 338.352 c 1.227
 334.418 1.492 329.656 3.996 325.985 c 23.324 297.629 33.543 264.504 33.543
 230.188 c h
116.512 346.789 m 143.945 316.231 l 132.746 306.406 123.457 294.453 116.742
 280.996 c 109.973 294.567 100.582 306.606 89.254 316.481 c h
104.742 229.914 m 104.742 223.285 110.113 217.914 116.742 217.914 c 123.371
 217.914 128.742 223.285 128.742 229.914 c 128.742 272.156 157.73 307.758
 196.859 317.867 c 183.117 290.793 175.941 260.91 175.941 230.188 c 175.941
 187.942 l 175.941 155.301 149.387 128.742 116.742 128.742 c 84.098 128.742
 57.543 155.301 57.543 187.942 c 57.543 230.188 l 57.543 260.91 50.367 290.793
 36.625 317.867 c 75.754 307.758 104.742 272.156 104.742 229.914 c h
104.742 229.914 m f
184.242 107.793 m 161.199 107.793 142.449 89.043 142.449 66 c 142.449 59.371
 147.824 54 154.449 54 c 161.078 54 166.449 59.371 166.449 66 c 166.449 
75.813 174.434 83.793 184.242 83.793 c 198.16 83.793 209.484 72.469 209.484
 58.551 c 209.484 39.5 193.984 24 174.934 24 c 149.465 24 128.742 44.719
 128.742 70.188 c 128.742 88.606 l 128.742 95.235 123.371 100.606 116.742
 100.606 c 110.113 100.606 104.742 95.235 104.742 88.606 c 104.742 70.188
 l 104.742 44.719 84.023 24 58.551 24 c 39.5 24 24 39.5 24 58.551 c 24 72.469
 35.324 83.793 49.242 83.793 c 59.055 83.793 67.035 75.813 67.035 66 c 67.035
 59.371 72.406 54 79.035 54 c 85.66 54 91.035 59.371 91.035 66 c 91.035 
89.043 72.285 107.793 49.242 107.793 c 22.09 107.793 0 85.703 0 58.551 c
 0 26.266 26.266 0 58.551 0 c 82.742 0 104.117 12.301 116.742 30.981 c 129.367
 12.301 150.742 0 174.934 0 c 207.219 0 233.484 26.266 233.484 58.551 c 
233.484 85.703 211.395 107.793 184.242 107.793 c h
184.242 107.793 m f
Q Q
showpage
%%Trailer
end restore
%%EOF
