%!PS-Adobe-3.0 EPSF-3.0
%%Creator: cairo 1.14.2 (http://cairographics.org)
%%CreationDate: Mon Apr  4 09:16:49 2016
%%Pages: 1
%%DocumentData: Clean7Bit
%%LanguageLevel: 2
%%BoundingBox: 0 -1 352 265
%%EndComments
%%BeginProlog
save
50 dict begin
/q { gsave } bind def
/Q { grestore } bind def
/cm { 6 array astore concat } bind def
/w { setlinewidth } bind def
/J { setlinecap } bind def
/j { setlinejoin } bind def
/M { setmiterlimit } bind def
/d { setdash } bind def
/m { moveto } bind def
/l { lineto } bind def
/c { curveto } bind def
/h { closepath } bind def
/re { exch dup neg 3 1 roll 5 3 roll moveto 0 rlineto
      0 exch rlineto 0 rlineto closepath } bind def
/S { stroke } bind def
/f { fill } bind def
/f* { eofill } bind def
/n { newpath } bind def
/W { clip } bind def
/W* { eoclip } bind def
/BT { } bind def
/ET { } bind def
/pdfmark where { pop globaldict /?pdfmark /exec load put }
    { globaldict begin /?pdfmark /pop load def /pdfmark
    /cleartomark load def end } ifelse
/BDC { mark 3 1 roll /BDC pdfmark } bind def
/EMC { mark /EMC pdfmark } bind def
/cairo_store_point { /cairo_point_y exch def /cairo_point_x exch def } def
/Tj { show currentpoint cairo_store_point } bind def
/TJ {
  {
    dup
    type /stringtype eq
    { show } { -0.001 mul 0 cairo_font_matrix dtransform rmoveto } ifelse
  } forall
  currentpoint cairo_store_point
} bind def
/cairo_selectfont { cairo_font_matrix aload pop pop pop 0 0 6 array astore
    cairo_font exch selectfont cairo_point_x cairo_point_y moveto } bind def
/Tf { pop /cairo_font exch def /cairo_font_matrix where
      { pop cairo_selectfont } if } bind def
/Td { matrix translate cairo_font_matrix matrix concatmatrix dup
      /cairo_font_matrix exch def dup 4 get exch 5 get cairo_store_point
      /cairo_font where { pop cairo_selectfont } if } bind def
/Tm { 2 copy 8 2 roll 6 array astore /cairo_font_matrix exch def
      cairo_store_point /cairo_font where { pop cairo_selectfont } if } bind def
/g { setgray } bind def
/rg { setrgbcolor } bind def
/d1 { setcachedevice } bind def
%%EndProlog
%%BeginSetup
%%EndSetup
%%Page: 1 1
%%BeginPageSetup
%%PageBoundingBox: 0 -1 352 265
%%EndPageSetup
q 0 -1 352 266 rectclip q
0 g
340 24 m 90.727 24 l 64.805 24 40.023 32.059 19.059 47.305 c 13.699 51.203
 6.195 50.02 2.297 44.66 c -1.602 39.297 -0.418 31.793 4.941 27.895 c 30.035
 9.645 59.699 0 90.727 0 c 340 0 l 346.629 0 352 5.371 352 12 c 352 18.629
 346.629 24 340 24 c h
340 24 m f
93.285 29.434 m 94.133 29.434 94.992 29.523 95.852 29.711 c 305.758 75.477
 l 312.23 76.887 316.336 83.281 314.926 89.758 c 313.512 96.231 307.121 
100.336 300.645 98.926 c 90.742 53.16 l 84.266 51.746 80.16 45.352 81.574
 38.879 c 82.797 33.266 87.766 29.434 93.285 29.434 c h
93.285 29.434 m f
275.199 169.133 m 275.199 154.652 281.262 146.773 285.691 141.02 c 289.242
 136.398 291.199 133.856 291.199 127.535 c 291.199 120.91 296.574 115.535
 303.199 115.535 c 309.828 115.535 315.199 120.91 315.199 127.535 c 315.199
 142.016 309.141 149.898 304.711 155.652 c 301.16 160.27 299.199 162.816
 299.199 169.133 c 299.199 175.453 301.16 177.996 304.715 182.617 c 309.141
 188.371 315.199 196.254 315.199 210.734 c 315.199 225.215 309.141 233.098
 304.715 238.852 c 301.16 243.473 299.199 246.016 299.199 252.336 c 299.199
 258.965 293.828 264.336 287.199 264.336 c 280.574 264.336 275.199 258.965
 275.199 252.336 c 275.199 237.856 281.262 229.973 285.688 224.219 c 289.242
 219.598 291.199 217.055 291.199 210.734 c 291.199 204.418 289.242 201.871
 285.688 197.25 c 281.262 191.496 275.199 183.613 275.199 169.133 c h
275.199 169.133 m f
Q Q
showpage
%%Trailer
end restore
%%EOF
