%!PS-Adobe-3.0 EPSF-3.0
%%Creator: cairo 1.14.2 (http://cairographics.org)
%%CreationDate: Mon Apr  4 09:16:34 2016
%%Pages: 1
%%DocumentData: Clean7Bit
%%LanguageLevel: 2
%%BoundingBox: 0 -1 350 358
%%EndComments
%%BeginProlog
save
50 dict begin
/q { gsave } bind def
/Q { grestore } bind def
/cm { 6 array astore concat } bind def
/w { setlinewidth } bind def
/J { setlinecap } bind def
/j { setlinejoin } bind def
/M { setmiterlimit } bind def
/d { setdash } bind def
/m { moveto } bind def
/l { lineto } bind def
/c { curveto } bind def
/h { closepath } bind def
/re { exch dup neg 3 1 roll 5 3 roll moveto 0 rlineto
      0 exch rlineto 0 rlineto closepath } bind def
/S { stroke } bind def
/f { fill } bind def
/f* { eofill } bind def
/n { newpath } bind def
/W { clip } bind def
/W* { eoclip } bind def
/BT { } bind def
/ET { } bind def
/pdfmark where { pop globaldict /?pdfmark /exec load put }
    { globaldict begin /?pdfmark /pop load def /pdfmark
    /cleartomark load def end } ifelse
/BDC { mark 3 1 roll /BDC pdfmark } bind def
/EMC { mark /EMC pdfmark } bind def
/cairo_store_point { /cairo_point_y exch def /cairo_point_x exch def } def
/Tj { show currentpoint cairo_store_point } bind def
/TJ {
  {
    dup
    type /stringtype eq
    { show } { -0.001 mul 0 cairo_font_matrix dtransform rmoveto } ifelse
  } forall
  currentpoint cairo_store_point
} bind def
/cairo_selectfont { cairo_font_matrix aload pop pop pop 0 0 6 array astore
    cairo_font exch selectfont cairo_point_x cairo_point_y moveto } bind def
/Tf { pop /cairo_font exch def /cairo_font_matrix where
      { pop cairo_selectfont } if } bind def
/Td { matrix translate cairo_font_matrix matrix concatmatrix dup
      /cairo_font_matrix exch def dup 4 get exch 5 get cairo_store_point
      /cairo_font where { pop cairo_selectfont } if } bind def
/Tm { 2 copy 8 2 roll 6 array astore /cairo_font_matrix exch def
      cairo_store_point /cairo_font where { pop cairo_selectfont } if } bind def
/g { setgray } bind def
/rg { setrgbcolor } bind def
/d1 { setcachedevice } bind def
%%EndProlog
%%BeginSetup
%%EndSetup
%%Page: 1 1
%%BeginPageSetup
%%PageBoundingBox: 0 -1 350 358
%%EndPageSetup
q 0 -1 350 359 rectclip q
0 g
147.473 89.47 m 113.34 95.18 82.082 112.903 59.461 139.376 c 39.199 163.083
 27.004 192.595 24.488 223.536 c 319.715 223.536 l 318.039 202.919 312.07
 182.786 302.199 164.696 c 299.023 158.88 301.164 151.591 306.98 148.415
 c 312.801 145.239 320.09 147.384 323.266 153.2 c 336.965 178.298 344.203
 206.77 344.203 235.536 c 344.203 242.165 338.832 247.536 332.203 247.536
 c 12 247.536 l 5.371 247.536 0 242.165 0 235.536 c 0 194.571 14.637 154.884
 41.215 123.786 c 67.496 93.032 103.824 72.438 143.512 65.802 c 144.184 
65.688 144.848 65.634 145.508 65.634 c 151.262 65.634 156.348 69.79 157.328
 75.657 c 158.422 82.192 154.008 88.376 147.473 89.47 c h
147.473 89.47 m f
306.473 137.54 m 303.355 137.54 299.84 137.177 296.125 136.52 c 296.785
 140.235 297.145 143.751 297.145 146.864 c 297.145 170.43 277.973 189.602
 254.406 189.602 c 230.844 189.602 211.672 170.43 211.672 146.864 c 211.672
 143.747 212.031 140.235 212.691 136.52 c 208.977 137.177 205.461 137.54
 202.344 137.54 c 178.777 137.54 159.605 118.368 159.605 94.802 c 159.605
 71.235 178.777 52.063 202.344 52.063 c 205.461 52.063 208.977 52.427 212.691
 53.083 c 212.031 49.368 211.672 45.852 211.672 42.735 c 211.672 19.173 
230.844 0.001 254.406 0.001 c 277.973 0.001 297.145 19.173 297.145 42.735
 c 297.145 45.852 296.785 49.368 296.125 53.083 c 299.84 52.427 303.355 
52.063 306.473 52.063 c 330.039 52.063 349.211 71.235 349.211 94.802 c 349.211
 118.368 330.039 137.54 306.473 137.54 c h
233.602 94.802 m 233.602 106.274 242.938 115.606 254.406 115.606 c 265.879
 115.606 275.211 106.274 275.211 94.802 c 275.211 83.329 265.879 73.997 
254.406 73.997 c 242.938 73.997 233.602 83.329 233.602 94.802 c h
254.406 165.602 m 264.738 165.602 273.145 157.2 273.145 146.868 c 273.145
 144.282 272.625 140.528 271.535 136.196 c 266.258 138.391 260.473 139.606
 254.406 139.606 c 248.344 139.606 242.559 138.391 237.281 136.196 c 236.191
 140.528 235.672 144.282 235.672 146.868 c 235.672 157.196 244.078 165.602
 254.406 165.602 c h
183.605 94.802 m 183.605 105.134 192.012 113.54 202.344 113.54 c 204.93
 113.54 208.68 113.02 213.012 111.93 c 210.82 106.649 209.605 100.864 209.605
 94.802 c 209.605 88.739 210.82 82.954 213.012 77.673 c 208.68 76.583 204.93
 76.063 202.344 76.063 c 192.012 76.063 183.605 84.47 183.605 94.802 c h
254.406 24.001 m 244.078 24.001 235.672 32.407 235.672 42.739 c 235.672
 45.321 236.191 49.075 237.281 53.407 c 242.559 51.216 248.344 49.997 254.406
 49.997 c 260.473 49.997 266.258 51.216 271.535 53.407 c 272.625 49.075 
273.145 45.321 273.145 42.739 c 273.145 32.407 264.738 24.001 254.406 24.001
 c h
306.473 76.063 m 303.887 76.063 300.133 76.583 295.801 77.673 c 297.996
 82.954 299.211 88.739 299.211 94.802 c 299.211 100.864 297.996 106.649 
295.801 111.93 c 300.133 113.02 303.887 113.54 306.473 113.54 c 316.805 
113.54 325.211 105.134 325.211 94.802 c 325.211 84.47 316.805 76.063 306.473
 76.063 c h
306.473 76.063 m f
162.898 284.88 m 158.645 279.798 159.316 272.227 164.398 267.973 c 166.645
 266.091 169.375 265.173 172.094 265.173 c 175.523 265.173 178.93 266.638
 181.301 269.47 c 193.383 283.899 193.383 304.848 181.301 319.278 c 176.695
 324.778 176.695 332.766 181.301 338.27 c 185.559 343.352 184.887 350.923
 179.805 355.173 c 174.723 359.43 167.156 358.759 162.898 353.677 c 150.82
 339.247 150.82 318.302 162.902 303.872 c 167.508 298.368 167.508 290.38
 162.898 284.88 c h
162.898 284.88 m f
101.66 284.88 m 97.402 279.798 98.074 272.227 103.156 267.973 c 105.402
 266.091 108.137 265.173 110.852 265.173 c 114.281 265.173 117.688 266.638
 120.059 269.47 c 132.141 283.899 132.145 304.848 120.062 319.278 c 115.457
 324.778 115.453 332.766 120.062 338.27 c 124.316 343.352 123.645 350.919
 118.562 355.173 c 113.48 359.43 105.914 358.759 101.66 353.677 c 89.578
 339.247 89.578 318.302 101.66 303.872 c 106.266 298.368 106.266 290.38 
101.66 284.88 c h
101.66 284.88 m f
224.141 284.876 m 219.887 279.798 220.559 272.227 225.637 267.973 c 227.887
 266.091 230.617 265.173 233.336 265.173 c 236.762 265.173 240.168 266.638
 242.543 269.47 c 254.625 283.899 254.625 304.848 242.543 319.278 c 237.938
 324.778 237.938 332.766 242.543 338.27 c 246.797 343.352 246.129 350.919
 241.047 355.173 c 235.965 359.427 228.395 358.759 224.141 353.677 c 212.062
 339.247 212.062 318.302 224.141 303.868 c 228.75 298.368 228.746 290.38
 224.141 284.876 c h
224.141 284.876 m f
Q Q
showpage
%%Trailer
end restore
%%EOF
