%!PS-Adobe-3.0 EPSF-3.0
%%Creator: cairo 1.14.2 (http://cairographics.org)
%%CreationDate: Mon Apr  4 09:16:23 2016
%%Pages: 1
%%DocumentData: Clean7Bit
%%LanguageLevel: 2
%%BoundingBox: 0 -1 353 381
%%EndComments
%%BeginProlog
save
50 dict begin
/q { gsave } bind def
/Q { grestore } bind def
/cm { 6 array astore concat } bind def
/w { setlinewidth } bind def
/J { setlinecap } bind def
/j { setlinejoin } bind def
/M { setmiterlimit } bind def
/d { setdash } bind def
/m { moveto } bind def
/l { lineto } bind def
/c { curveto } bind def
/h { closepath } bind def
/re { exch dup neg 3 1 roll 5 3 roll moveto 0 rlineto
      0 exch rlineto 0 rlineto closepath } bind def
/S { stroke } bind def
/f { fill } bind def
/f* { eofill } bind def
/n { newpath } bind def
/W { clip } bind def
/W* { eoclip } bind def
/BT { } bind def
/ET { } bind def
/pdfmark where { pop globaldict /?pdfmark /exec load put }
    { globaldict begin /?pdfmark /pop load def /pdfmark
    /cleartomark load def end } ifelse
/BDC { mark 3 1 roll /BDC pdfmark } bind def
/EMC { mark /EMC pdfmark } bind def
/cairo_store_point { /cairo_point_y exch def /cairo_point_x exch def } def
/Tj { show currentpoint cairo_store_point } bind def
/TJ {
  {
    dup
    type /stringtype eq
    { show } { -0.001 mul 0 cairo_font_matrix dtransform rmoveto } ifelse
  } forall
  currentpoint cairo_store_point
} bind def
/cairo_selectfont { cairo_font_matrix aload pop pop pop 0 0 6 array astore
    cairo_font exch selectfont cairo_point_x cairo_point_y moveto } bind def
/Tf { pop /cairo_font exch def /cairo_font_matrix where
      { pop cairo_selectfont } if } bind def
/Td { matrix translate cairo_font_matrix matrix concatmatrix dup
      /cairo_font_matrix exch def dup 4 get exch 5 get cairo_store_point
      /cairo_font where { pop cairo_selectfont } if } bind def
/Tm { 2 copy 8 2 roll 6 array astore /cairo_font_matrix exch def
      cairo_store_point /cairo_font where { pop cairo_selectfont } if } bind def
/g { setgray } bind def
/rg { setrgbcolor } bind def
/d1 { setcachedevice } bind def
%%EndProlog
%%BeginSetup
%%EndSetup
%%Page: 1 1
%%BeginPageSetup
%%PageBoundingBox: 0 -1 353 381
%%EndPageSetup
q 0 -1 353 382 rectclip q
0 g
340.59 260.177 m 322.195 260.822 304.148 258.556 286.969 253.576 c 285.785
 271.564 281.742 289.197 274.875 306.189 c 272.395 312.334 265.395 315.302
 259.254 312.818 c 243.105 306.295 228.297 297.525 215.051 286.673 c 207.09
 301.849 196.883 315.709 184.574 328.017 c 182.324 330.267 179.27 331.533
 176.09 331.533 c 172.906 331.533 169.855 330.267 167.605 328.017 c 155.293
 315.709 145.086 301.849 137.125 286.67 c 123.871 297.529 109.059 306.295
 92.914 312.818 c 86.766 315.302 79.777 312.334 77.293 306.189 c 70.426 
289.197 66.383 271.564 65.203 253.58 c 48.023 258.552 29.977 260.822 11.582
 260.177 c 4.957 259.947 -0.223 254.388 0.008 247.767 c 1.598 202.212 20.832
 160.005 54.168 128.92 c 66.844 117.099 80.98 107.435 96.137 100.072 c 84.918
 83.537 78.508 64.068 77.801 43.845 c 77.57 37.224 82.75 31.67 89.371 31.435
 c 90.578 31.392 91.82 31.373 93.168 31.373 c 109.242 31.373 124.797 35.005
 138.852 41.67 c 146.543 27.736 156.164 14.955 167.602 3.513 c 169.855 1.263
 172.906 0.002 176.09 0.002 c 179.27 0.002 182.324 1.263 184.574 3.513 c
 196.012 14.955 205.633 27.736 213.328 41.67 c 227.383 35.005 242.938 31.373
 259.008 31.373 c 260.359 31.373 261.602 31.392 262.809 31.435 c 269.43 
31.67 274.609 37.224 274.379 43.845 c 273.672 64.068 267.258 83.533 256.039
 100.076 c 271.191 107.439 285.332 117.103 298 128.92 c 331.336 160.005 
350.57 202.212 352.164 247.767 c 352.395 254.388 347.215 259.947 340.59 
260.177 c h
263.316 244.759 m 246.984 237.232 231.789 227.056 218.258 214.439 c 209.98
 206.72 202.57 198.31 196.086 189.341 c 194.355 197.627 192.004 205.795 
189.031 213.81 c 196.379 230.498 206.613 245.47 219.516 258.365 c 230.477
 269.341 242.992 278.4 256.832 285.392 c 260.926 272.166 263.094 258.564
 263.316 244.759 c h
176.09 301.822 m 184.449 291.927 191.391 281.06 196.844 269.357 c 188.938
 260.658 182.004 251.228 176.086 241.142 c 170.164 251.232 163.234 260.662
 155.332 269.353 c 160.789 281.06 167.73 291.927 176.09 301.822 c h
95.336 285.392 m 109.18 278.4 121.695 269.341 132.676 258.357 c 146.648
 244.392 157.512 227.962 164.965 209.525 c 172.078 191.935 175.684 173.435
 175.684 154.545 c 175.684 154.345 175.68 154.158 175.68 153.966 c 166.469
 176.646 152.355 197.244 133.918 214.439 c 120.383 227.056 105.184 237.232
 88.855 244.759 c 89.078 258.564 91.242 272.166 95.336 285.392 c h
24.961 236.099 m 96.016 232.552 154.629 177.892 163.125 107.259 c 92.07
 110.806 33.457 165.462 24.961 236.099 c h
119.145 90.908 m 130.895 87.209 143.078 84.798 155.523 83.724 c 142.156
 68.431 123.555 58.486 103.27 55.99 c 105.746 68.697 111.18 80.658 119.145
 90.908 c h
176.09 29.709 m 169.629 37.357 164.016 45.584 159.281 54.33 c 165.438 59.185
 171.082 64.736 176.09 70.904 c 181.098 64.736 186.742 59.189 192.898 54.334
 c 188.164 45.587 182.551 37.357 176.09 29.709 c h
248.914 55.99 m 228.629 58.49 210.027 68.431 196.66 83.724 c 209.102 84.798
 221.285 87.209 233.035 90.912 c 241 80.658 246.434 68.697 248.914 55.99
 c h
189.043 107.255 m 193.137 141.58 209.051 173.037 234.625 196.884 c 260.195
 220.732 292.688 234.412 327.215 236.103 c 318.719 165.466 260.102 110.798
 189.043 107.255 c h
189.043 107.255 m f
176.09 356.326 m 179.25 356.326 182.336 357.615 184.578 359.845 c 186.809
 362.076 188.09 365.173 188.09 368.334 c 188.09 371.486 186.809 374.58 184.578
 376.814 c 182.336 379.052 179.25 380.334 176.09 380.334 c 172.93 380.334
 169.84 379.052 167.602 376.814 c 165.367 374.58 164.09 371.486 164.09 368.334
 c 164.09 365.173 165.367 362.076 167.602 359.845 c 169.84 357.615 172.93
 356.326 176.09 356.326 c h
176.09 356.326 m f
88.418 332.334 m 91.578 332.334 94.672 333.615 96.906 335.845 c 99.137 
338.076 100.418 341.173 100.418 344.334 c 100.418 347.494 99.137 350.58 
96.906 352.814 c 94.672 355.045 91.578 356.334 88.418 356.334 c 85.258 356.334
 82.168 355.045 79.93 352.814 c 77.699 350.58 76.418 347.494 76.418 344.334
 c 76.418 341.173 77.699 338.076 79.93 335.845 c 82.168 333.615 85.258 332.334
 88.418 332.334 c h
88.418 332.334 m f
263.754 332.334 m 266.902 332.334 270 333.615 272.234 335.845 c 274.473
 338.076 275.754 341.173 275.754 344.334 c 275.754 347.494 274.473 350.58
 272.234 352.814 c 270 355.045 266.914 356.334 263.754 356.334 c 260.594
 356.334 257.496 355.045 255.266 352.814 c 253.031 350.58 251.754 347.486
 251.754 344.334 c 251.754 341.173 253.031 338.076 255.266 335.845 c 257.496
 333.615 260.594 332.334 263.754 332.334 c h
263.754 332.334 m f
Q Q
showpage
%%Trailer
end restore
%%EOF
