%!PS-Adobe-3.0 EPSF-3.0
%%Creator: cairo 1.14.2 (http://cairographics.org)
%%CreationDate: Mon Apr  4 09:16:18 2016
%%Pages: 1
%%DocumentData: Clean7Bit
%%LanguageLevel: 2
%%BoundingBox: 0 -1 252 375
%%EndComments
%%BeginProlog
save
50 dict begin
/q { gsave } bind def
/Q { grestore } bind def
/cm { 6 array astore concat } bind def
/w { setlinewidth } bind def
/J { setlinecap } bind def
/j { setlinejoin } bind def
/M { setmiterlimit } bind def
/d { setdash } bind def
/m { moveto } bind def
/l { lineto } bind def
/c { curveto } bind def
/h { closepath } bind def
/re { exch dup neg 3 1 roll 5 3 roll moveto 0 rlineto
      0 exch rlineto 0 rlineto closepath } bind def
/S { stroke } bind def
/f { fill } bind def
/f* { eofill } bind def
/n { newpath } bind def
/W { clip } bind def
/W* { eoclip } bind def
/BT { } bind def
/ET { } bind def
/pdfmark where { pop globaldict /?pdfmark /exec load put }
    { globaldict begin /?pdfmark /pop load def /pdfmark
    /cleartomark load def end } ifelse
/BDC { mark 3 1 roll /BDC pdfmark } bind def
/EMC { mark /EMC pdfmark } bind def
/cairo_store_point { /cairo_point_y exch def /cairo_point_x exch def } def
/Tj { show currentpoint cairo_store_point } bind def
/TJ {
  {
    dup
    type /stringtype eq
    { show } { -0.001 mul 0 cairo_font_matrix dtransform rmoveto } ifelse
  } forall
  currentpoint cairo_store_point
} bind def
/cairo_selectfont { cairo_font_matrix aload pop pop pop 0 0 6 array astore
    cairo_font exch selectfont cairo_point_x cairo_point_y moveto } bind def
/Tf { pop /cairo_font exch def /cairo_font_matrix where
      { pop cairo_selectfont } if } bind def
/Td { matrix translate cairo_font_matrix matrix concatmatrix dup
      /cairo_font_matrix exch def dup 4 get exch 5 get cairo_store_point
      /cairo_font where { pop cairo_selectfont } if } bind def
/Tm { 2 copy 8 2 roll 6 array astore /cairo_font_matrix exch def
      cairo_store_point /cairo_font where { pop cairo_selectfont } if } bind def
/g { setgray } bind def
/rg { setrgbcolor } bind def
/d1 { setcachedevice } bind def
%%EndProlog
%%BeginSetup
%%EndSetup
%%Page: 1 1
%%BeginPageSetup
%%PageBoundingBox: 0 -1 252 375
%%EndPageSetup
q 0 -1 252 376 rectclip q
0 g
216.492 313.502 m 197.086 313.502 181.297 297.713 181.297 278.311 c 181.297
 223.674 l 177.777 224.857 174.02 225.51 170.105 225.51 c 166.191 225.51
 162.43 224.857 158.914 223.674 c 158.914 339.561 l 158.914 358.963 143.125
 374.752 123.719 374.752 c 105.016 374.752 89.676 360.08 88.594 341.643 
c 85.055 342.842 81.273 343.502 77.332 343.502 c 57.93 343.502 42.141 327.713
 42.141 308.307 c 42.141 215.967 l 34.863 215.967 l 23.82 215.967 13.676
 210.904 7.031 202.084 c 0.387 193.26 -1.672 182.111 1.383 171.498 c 26.836
 82.971 l 33.766 58.865 48.02 38.15 68.059 23.061 c 88.094 7.975 111.945
 -0.002 137.027 -0.002 c 200.246 -0.002 251.684 51.436 251.684 114.654 c
 251.684 278.311 l 251.684 297.713 235.895 313.502 216.492 313.502 c h
170.105 201.51 m 176.277 201.51 181.297 196.486 181.297 190.314 c 181.297
 151.506 l 181.297 145.334 176.277 140.314 170.105 140.314 c 163.934 140.314
 158.914 145.334 158.914 151.506 c 158.914 190.314 l 158.914 196.486 163.934
 201.51 170.105 201.51 c h
112.527 339.561 m 112.527 345.729 117.547 350.752 123.719 350.752 c 129.891
 350.752 134.914 345.732 134.914 339.561 c 134.914 214.131 l 131.395 215.314
 127.633 215.963 123.719 215.963 c 112.527 215.963 l h
66.141 308.307 m 66.141 314.479 71.164 319.502 77.332 319.502 c 83.508 
319.502 88.527 314.479 88.527 308.307 c 88.527 215.967 l 66.141 215.967 
l h
227.684 114.654 m 227.684 64.666 187.016 23.998 137.027 23.998 c 117.195
 23.998 98.34 30.307 82.496 42.232 c 66.652 54.162 55.383 70.545 49.902 
89.604 c 24.449 178.131 l 23.496 181.432 24.141 184.9 26.207 187.647 c 28.273
 190.393 31.43 191.963 34.863 191.963 c 123.719 191.963 l 129.891 191.963
 134.914 186.943 134.914 180.772 c 134.914 174.6 129.891 169.58 123.719 
169.58 c 64.527 169.58 l 57.902 169.58 52.527 164.205 52.527 157.58 c 52.527
 150.951 57.902 145.58 64.527 145.58 c 83.184 145.58 l 90.516 133.264 94.785
 119.35 95.594 104.975 c 95.957 98.588 101.246 93.65 107.566 93.65 c 107.793
 93.65 108.023 93.658 108.254 93.67 c 114.871 94.045 119.93 99.709 119.559
 106.326 c 118.789 119.936 115.562 133.217 110.117 145.58 c 123.719 145.58
 l 127.719 145.58 131.562 146.26 135.148 147.494 c 137.145 129.971 152.059
 116.311 170.105 116.311 c 189.512 116.311 205.297 132.1 205.297 151.506
 c 205.297 278.311 l 205.297 284.482 210.32 289.502 216.492 289.502 c 222.66
 289.502 227.684 284.482 227.684 278.311 c h
227.684 114.654 m f
Q Q
showpage
%%Trailer
end restore
%%EOF
