%!PS-Adobe-3.0 EPSF-3.0
%%Creator: cairo 1.14.2 (http://cairographics.org)
%%CreationDate: Mon Apr  4 09:15:57 2016
%%Pages: 1
%%DocumentData: Clean7Bit
%%LanguageLevel: 2
%%BoundingBox: 0 -1 307 286
%%EndComments
%%BeginProlog
save
50 dict begin
/q { gsave } bind def
/Q { grestore } bind def
/cm { 6 array astore concat } bind def
/w { setlinewidth } bind def
/J { setlinecap } bind def
/j { setlinejoin } bind def
/M { setmiterlimit } bind def
/d { setdash } bind def
/m { moveto } bind def
/l { lineto } bind def
/c { curveto } bind def
/h { closepath } bind def
/re { exch dup neg 3 1 roll 5 3 roll moveto 0 rlineto
      0 exch rlineto 0 rlineto closepath } bind def
/S { stroke } bind def
/f { fill } bind def
/f* { eofill } bind def
/n { newpath } bind def
/W { clip } bind def
/W* { eoclip } bind def
/BT { } bind def
/ET { } bind def
/pdfmark where { pop globaldict /?pdfmark /exec load put }
    { globaldict begin /?pdfmark /pop load def /pdfmark
    /cleartomark load def end } ifelse
/BDC { mark 3 1 roll /BDC pdfmark } bind def
/EMC { mark /EMC pdfmark } bind def
/cairo_store_point { /cairo_point_y exch def /cairo_point_x exch def } def
/Tj { show currentpoint cairo_store_point } bind def
/TJ {
  {
    dup
    type /stringtype eq
    { show } { -0.001 mul 0 cairo_font_matrix dtransform rmoveto } ifelse
  } forall
  currentpoint cairo_store_point
} bind def
/cairo_selectfont { cairo_font_matrix aload pop pop pop 0 0 6 array astore
    cairo_font exch selectfont cairo_point_x cairo_point_y moveto } bind def
/Tf { pop /cairo_font exch def /cairo_font_matrix where
      { pop cairo_selectfont } if } bind def
/Td { matrix translate cairo_font_matrix matrix concatmatrix dup
      /cairo_font_matrix exch def dup 4 get exch 5 get cairo_store_point
      /cairo_font where { pop cairo_selectfont } if } bind def
/Tm { 2 copy 8 2 roll 6 array astore /cairo_font_matrix exch def
      cairo_store_point /cairo_font where { pop cairo_selectfont } if } bind def
/g { setgray } bind def
/rg { setrgbcolor } bind def
/d1 { setcachedevice } bind def
%%EndProlog
%%BeginSetup
%%EndSetup
%%Page: 1 1
%%BeginPageSetup
%%PageBoundingBox: 0 -1 307 286
%%EndPageSetup
q 0 -1 307 287 rectclip q
0 g
153.723 130.864 m 147.211 136.184 139.898 140.587 132.016 143.993 c 145.164
 155.532 153.477 172.454 153.477 191.278 c 153.477 225.962 125.258 254.184
 90.57 254.184 c 55.887 254.184 27.664 225.962 27.664 191.278 c 27.664 184.649
 33.039 179.278 39.664 179.278 c 46.293 179.278 51.664 184.649 51.664 191.278
 c 51.664 212.731 69.117 230.184 90.57 230.184 c 112.023 230.184 129.477
 212.731 129.477 191.278 c 129.477 169.825 112.023 152.372 90.57 152.372
 c 83.941 152.372 78.57 146.997 78.57 140.372 c 78.57 133.743 83.941 128.372
 90.57 128.372 c 127.277 128.372 157.141 104.962 157.141 76.188 c 157.141
 47.411 127.277 24.001 90.57 24.001 c 53.863 24.001 24 47.411 24 76.184 
c 24 82.813 18.629 88.184 12 88.184 c 5.371 88.184 0 82.813 0 76.184 c 0
 55.372 9.738 35.954 27.422 21.505 c 44.398 7.637 66.824 0.001 90.57 0.001
 c 114.316 0.001 136.746 7.637 153.723 21.505 c 171.406 35.95 181.141 55.372
 181.141 76.184 c 181.141 97.001 171.406 116.419 153.723 130.864 c h
153.723 130.864 m f
243.289 194.423 m 226.508 194.423 210.73 187.895 198.855 176.044 c 167.395
 145.227 l 162.66 140.591 162.578 132.993 167.219 128.259 c 171.855 123.524
 179.453 123.442 184.188 128.083 c 215.691 158.942 l 215.719 158.969 215.746
 158.997 215.777 159.028 c 223.125 166.376 232.895 170.423 243.289 170.423
 c 264.738 170.423 282.195 152.969 282.195 131.516 c 282.195 110.063 264.742
 92.61 243.289 92.61 c 236.66 92.61 231.289 87.239 231.289 80.61 c 231.289
 73.985 236.66 68.61 243.289 68.61 c 277.973 68.61 306.195 96.829 306.195
 131.516 c 306.195 166.204 277.973 194.423 243.289 194.423 c h
243.289 194.423 m f
232.926 205.884 m 257.992 205.884 281.57 215.657 299.316 233.403 c 304.004
 238.091 304.004 245.688 299.316 250.372 c 294.633 255.059 287.031 255.059
 282.348 250.372 c 269.133 237.161 251.582 229.884 232.926 229.884 c 214.27
 229.884 196.719 237.161 183.504 250.372 c 178.82 255.059 171.223 255.059
 166.535 250.372 c 161.848 245.688 161.848 238.091 166.535 233.403 c 184.281
 215.657 207.859 205.884 232.926 205.884 c h
232.926 205.884 m f
213.934 257.387 m 220.242 256.091 226.617 255.442 232.973 255.442 c 244.59
 255.442 256.133 257.598 267.074 261.868 c 273.246 264.278 276.301 271.235
 273.891 277.411 c 271.48 283.583 264.523 286.637 258.348 284.227 c 245.746
 279.309 232.062 278.157 218.773 280.895 c 212.281 282.231 205.938 278.055
 204.598 271.563 c 203.262 265.071 207.441 258.727 213.934 257.387 c h
213.934 257.387 m f
Q Q
showpage
%%Trailer
end restore
%%EOF
