%!PS-Adobe-3.0 EPSF-3.0
%%Creator: cairo 1.14.2 (http://cairographics.org)
%%CreationDate: Mon Apr  4 09:17:03 2016
%%Pages: 1
%%DocumentData: Clean7Bit
%%LanguageLevel: 2
%%BoundingBox: 0 -1 322 313
%%EndComments
%%BeginProlog
save
50 dict begin
/q { gsave } bind def
/Q { grestore } bind def
/cm { 6 array astore concat } bind def
/w { setlinewidth } bind def
/J { setlinecap } bind def
/j { setlinejoin } bind def
/M { setmiterlimit } bind def
/d { setdash } bind def
/m { moveto } bind def
/l { lineto } bind def
/c { curveto } bind def
/h { closepath } bind def
/re { exch dup neg 3 1 roll 5 3 roll moveto 0 rlineto
      0 exch rlineto 0 rlineto closepath } bind def
/S { stroke } bind def
/f { fill } bind def
/f* { eofill } bind def
/n { newpath } bind def
/W { clip } bind def
/W* { eoclip } bind def
/BT { } bind def
/ET { } bind def
/pdfmark where { pop globaldict /?pdfmark /exec load put }
    { globaldict begin /?pdfmark /pop load def /pdfmark
    /cleartomark load def end } ifelse
/BDC { mark 3 1 roll /BDC pdfmark } bind def
/EMC { mark /EMC pdfmark } bind def
/cairo_store_point { /cairo_point_y exch def /cairo_point_x exch def } def
/Tj { show currentpoint cairo_store_point } bind def
/TJ {
  {
    dup
    type /stringtype eq
    { show } { -0.001 mul 0 cairo_font_matrix dtransform rmoveto } ifelse
  } forall
  currentpoint cairo_store_point
} bind def
/cairo_selectfont { cairo_font_matrix aload pop pop pop 0 0 6 array astore
    cairo_font exch selectfont cairo_point_x cairo_point_y moveto } bind def
/Tf { pop /cairo_font exch def /cairo_font_matrix where
      { pop cairo_selectfont } if } bind def
/Td { matrix translate cairo_font_matrix matrix concatmatrix dup
      /cairo_font_matrix exch def dup 4 get exch 5 get cairo_store_point
      /cairo_font where { pop cairo_selectfont } if } bind def
/Tm { 2 copy 8 2 roll 6 array astore /cairo_font_matrix exch def
      cairo_store_point /cairo_font where { pop cairo_selectfont } if } bind def
/g { setgray } bind def
/rg { setrgbcolor } bind def
/d1 { setcachedevice } bind def
%%EndProlog
%%BeginSetup
%%EndSetup
%%Page: 1 1
%%BeginPageSetup
%%PageBoundingBox: 0 -1 322 313
%%EndPageSetup
q 0 -1 322 314 rectclip q
0 g
270.039 122.596 m 240.613 134.127 201.742 140.479 160.59 140.479 c 119.438
 140.479 80.57 134.127 51.141 122.596 c 18.164 109.666 0 91.076 0 70.241
 c 0 49.405 18.164 30.811 51.141 17.885 c 80.57 6.354 119.438 -0.002 160.59
 -0.002 c 201.742 -0.002 240.613 6.354 270.039 17.885 c 303.02 30.811 321.184
 49.405 321.184 70.241 c 321.184 91.076 303.02 109.666 270.039 122.596 c
 h
261.281 40.229 m 234.578 29.764 198.82 23.998 160.59 23.998 c 122.363 23.998
 86.605 29.764 59.902 40.229 c 37.758 48.908 24 60.408 24 70.241 c 24 80.073
 37.758 91.569 59.898 100.248 c 86.605 110.717 122.363 116.483 160.59 116.483
 c 198.816 116.483 234.578 110.717 261.281 100.248 c 283.426 91.569 297.18
 80.073 297.18 70.241 c 297.18 60.408 283.426 48.908 261.281 40.229 c h
261.281 40.229 m f
54.098 134.776 m 59.77 131.346 67.145 133.162 70.574 138.834 c 74.004 144.506
 72.188 151.885 66.516 155.315 c 56.887 161.135 51.363 167.608 51.363 173.069
 c 51.363 188.502 93.914 210.924 160.586 210.924 c 227.266 210.924 269.82
 188.502 269.82 173.069 c 269.82 167.608 264.297 161.135 254.664 155.315
 c 248.996 151.885 247.176 144.506 250.605 138.834 c 252.863 135.104 256.824
 133.041 260.887 133.041 c 263 133.041 265.145 133.6 267.086 134.776 c 289.18
 148.139 293.82 162.975 293.82 173.069 c 293.82 191.573 278.57 208.033 250.875
 219.42 c 226.562 229.42 194.496 234.924 160.59 234.924 c 126.68 234.924
 94.613 229.42 70.305 219.42 c 42.613 208.033 27.363 191.573 27.363 173.069
 c 27.363 162.975 32 148.139 54.098 134.776 c h
54.098 134.776 m f
91.414 235.576 m 96.867 231.811 104.344 233.178 108.109 238.631 c 111.875
 244.084 110.508 251.561 105.055 255.326 c 100.145 258.713 97.332 262.303
 97.332 265.17 c 97.332 268.369 101.293 273.963 112.457 279.182 c 124.93
 285.018 142.473 288.362 160.586 288.362 c 178.703 288.362 196.25 285.018
 208.723 279.182 c 219.891 273.963 223.852 268.369 223.852 265.17 c 223.852
 262.303 221.035 258.717 216.125 255.326 c 210.668 251.565 209.297 244.092
 213.062 238.635 c 215.391 235.26 219.137 233.448 222.949 233.448 c 225.301
 233.448 227.672 234.139 229.754 235.573 c 244.711 245.893 247.852 257.362
 247.852 265.17 c 247.852 279.491 237.566 292.19 218.891 300.924 c 203.117
 308.299 182.41 312.362 160.586 312.362 c 138.77 312.362 118.062 308.299
 102.289 300.924 c 83.613 292.19 73.332 279.491 73.332 265.17 c 73.332 257.366
 76.469 245.901 91.414 235.576 c h
91.414 235.576 m f
Q Q
showpage
%%Trailer
end restore
%%EOF
