%!PS-Adobe-3.0 EPSF-3.0
%%Creator: cairo 1.14.2 (http://cairographics.org)
%%CreationDate: Mon Apr  4 09:16:39 2016
%%Pages: 1
%%DocumentData: Clean7Bit
%%LanguageLevel: 2
%%BoundingBox: 0 -1 352 288
%%EndComments
%%BeginProlog
save
50 dict begin
/q { gsave } bind def
/Q { grestore } bind def
/cm { 6 array astore concat } bind def
/w { setlinewidth } bind def
/J { setlinecap } bind def
/j { setlinejoin } bind def
/M { setmiterlimit } bind def
/d { setdash } bind def
/m { moveto } bind def
/l { lineto } bind def
/c { curveto } bind def
/h { closepath } bind def
/re { exch dup neg 3 1 roll 5 3 roll moveto 0 rlineto
      0 exch rlineto 0 rlineto closepath } bind def
/S { stroke } bind def
/f { fill } bind def
/f* { eofill } bind def
/n { newpath } bind def
/W { clip } bind def
/W* { eoclip } bind def
/BT { } bind def
/ET { } bind def
/pdfmark where { pop globaldict /?pdfmark /exec load put }
    { globaldict begin /?pdfmark /pop load def /pdfmark
    /cleartomark load def end } ifelse
/BDC { mark 3 1 roll /BDC pdfmark } bind def
/EMC { mark /EMC pdfmark } bind def
/cairo_store_point { /cairo_point_y exch def /cairo_point_x exch def } def
/Tj { show currentpoint cairo_store_point } bind def
/TJ {
  {
    dup
    type /stringtype eq
    { show } { -0.001 mul 0 cairo_font_matrix dtransform rmoveto } ifelse
  } forall
  currentpoint cairo_store_point
} bind def
/cairo_selectfont { cairo_font_matrix aload pop pop pop 0 0 6 array astore
    cairo_font exch selectfont cairo_point_x cairo_point_y moveto } bind def
/Tf { pop /cairo_font exch def /cairo_font_matrix where
      { pop cairo_selectfont } if } bind def
/Td { matrix translate cairo_font_matrix matrix concatmatrix dup
      /cairo_font_matrix exch def dup 4 get exch 5 get cairo_store_point
      /cairo_font where { pop cairo_selectfont } if } bind def
/Tm { 2 copy 8 2 roll 6 array astore /cairo_font_matrix exch def
      cairo_store_point /cairo_font where { pop cairo_selectfont } if } bind def
/g { setgray } bind def
/rg { setrgbcolor } bind def
/d1 { setcachedevice } bind def
%%EndProlog
%%BeginSetup
%%EndSetup
%%Page: 1 1
%%BeginPageSetup
%%PageBoundingBox: 0 -1 352 288
%%EndPageSetup
q 0 -1 352 289 rectclip q
0 g
350.25 124.213 m 335.27 150.963 l 332.535 155.846 326.789 158.189 321.418
 156.611 c 258.34 138.072 l 252.305 145.002 245.023 151.439 236.562 157.24
 c 210.488 175.127 176.043 184.975 139.57 184.975 c 103.094 184.975 68.648
 175.127 42.578 157.24 c 15.121 138.408 0 112.916 0 85.467 c 0 33.549 54.785
 0.002 139.57 0.002 c 202.637 0.002 249.098 18.568 268.766 49.447 c 347.031
 108.787 l 351.801 112.404 353.176 118.986 350.25 124.213 c h
200.508 149.506 m 182.332 142.021 161.367 137.99 139.57 137.99 c 117.773
 137.99 96.809 142.021 78.633 149.506 c 96.766 156.982 117.676 160.975 139.57
 160.975 c 161.465 160.975 182.375 156.982 200.508 149.506 c h
224.121 41.197 m 203.355 30.107 173.324 24.002 139.57 24.002 c 105.812 
24.002 75.785 30.107 55.016 41.197 c 34.434 52.185 24 67.08 24 85.467 c 
24 103.779 34.289 121.338 53.059 135.236 c 77.562 121.494 107.945 113.99
 139.57 113.99 c 171.195 113.99 201.578 121.494 226.086 135.232 c 244.852
 121.334 255.141 103.779 255.141 85.467 c 255.141 67.08 244.703 52.185 224.121
 41.197 c h
279.105 87.404 m 278.84 97.678 276.449 107.658 272.082 117.096 c 319.004
 130.889 l 324.203 121.6 l h
279.105 87.404 m f
44.754 168.768 m 51.383 168.768 56.754 174.139 56.754 180.768 c 56.754 
226.428 93.906 263.58 139.57 263.58 c 185.234 263.58 222.383 226.428 222.383
 180.768 c 222.383 174.139 227.758 168.768 234.383 168.768 c 241.012 168.768
 246.383 174.139 246.383 180.768 c 246.383 239.662 198.469 287.58 139.57
 287.58 c 80.672 287.58 32.754 239.662 32.754 180.768 c 32.754 174.139 38.129
 168.768 44.754 168.768 c h
44.754 168.768 m f
129.125 215.799 m 126.891 213.568 125.609 210.471 125.609 207.31 c 125.609
 204.158 126.891 201.064 129.125 198.83 c 131.355 196.6 134.453 195.318 
137.609 195.318 c 140.77 195.318 143.867 196.6 146.098 198.83 c 148.332 
201.064 149.609 204.158 149.609 207.31 c 149.609 210.471 148.332 213.568
 146.098 215.799 c 143.859 218.033 140.77 219.318 137.609 219.318 c 134.453
 219.318 131.355 218.033 129.125 215.799 c h
129.125 215.799 m f
Q Q
showpage
%%Trailer
end restore
%%EOF
