%!PS-Adobe-3.0 EPSF-3.0
%%Creator: cairo 1.14.2 (http://cairographics.org)
%%CreationDate: Mon Apr  4 09:16:28 2016
%%Pages: 1
%%DocumentData: Clean7Bit
%%LanguageLevel: 2
%%BoundingBox: 0 -1 303 361
%%EndComments
%%BeginProlog
save
50 dict begin
/q { gsave } bind def
/Q { grestore } bind def
/cm { 6 array astore concat } bind def
/w { setlinewidth } bind def
/J { setlinecap } bind def
/j { setlinejoin } bind def
/M { setmiterlimit } bind def
/d { setdash } bind def
/m { moveto } bind def
/l { lineto } bind def
/c { curveto } bind def
/h { closepath } bind def
/re { exch dup neg 3 1 roll 5 3 roll moveto 0 rlineto
      0 exch rlineto 0 rlineto closepath } bind def
/S { stroke } bind def
/f { fill } bind def
/f* { eofill } bind def
/n { newpath } bind def
/W { clip } bind def
/W* { eoclip } bind def
/BT { } bind def
/ET { } bind def
/pdfmark where { pop globaldict /?pdfmark /exec load put }
    { globaldict begin /?pdfmark /pop load def /pdfmark
    /cleartomark load def end } ifelse
/BDC { mark 3 1 roll /BDC pdfmark } bind def
/EMC { mark /EMC pdfmark } bind def
/cairo_store_point { /cairo_point_y exch def /cairo_point_x exch def } def
/Tj { show currentpoint cairo_store_point } bind def
/TJ {
  {
    dup
    type /stringtype eq
    { show } { -0.001 mul 0 cairo_font_matrix dtransform rmoveto } ifelse
  } forall
  currentpoint cairo_store_point
} bind def
/cairo_selectfont { cairo_font_matrix aload pop pop pop 0 0 6 array astore
    cairo_font exch selectfont cairo_point_x cairo_point_y moveto } bind def
/Tf { pop /cairo_font exch def /cairo_font_matrix where
      { pop cairo_selectfont } if } bind def
/Td { matrix translate cairo_font_matrix matrix concatmatrix dup
      /cairo_font_matrix exch def dup 4 get exch 5 get cairo_store_point
      /cairo_font where { pop cairo_selectfont } if } bind def
/Tm { 2 copy 8 2 roll 6 array astore /cairo_font_matrix exch def
      cairo_store_point /cairo_font where { pop cairo_selectfont } if } bind def
/g { setgray } bind def
/rg { setrgbcolor } bind def
/d1 { setcachedevice } bind def
%%EndProlog
%%BeginSetup
%%EndSetup
%%Page: 1 1
%%BeginPageSetup
%%PageBoundingBox: 0 -1 303 361
%%EndPageSetup
q 0 -1 303 362 rectclip q
0 g
258.422 258.349 m 159.863 356.904 l 157.613 359.154 154.562 360.419 151.379
 360.419 c 148.195 360.419 145.145 359.154 142.895 356.904 c 44.336 258.349
 l 15.746 229.755 0 191.743 0 151.306 c 0 110.872 15.746 72.857 44.34 44.267
 c 73.855 14.751 112.609 -0.003 151.379 0.001 c 190.141 0.005 228.914 14.759
 258.422 44.267 c 317.441 103.29 317.441 199.325 258.422 258.349 c h
241.449 61.236 m 191.785 11.572 110.973 11.572 61.309 61.236 c 11.645 110.9
 11.645 191.712 61.309 241.376 c 151.379 331.45 l 241.449 241.38 l 265.508
 217.318 278.758 185.333 278.758 151.31 c 278.758 117.282 265.508 85.294
 241.449 61.236 c h
241.449 61.236 m f
159.863 187.197 m 155.176 191.884 147.578 191.884 142.895 187.197 c 129.191
 173.493 l 116.957 161.259 116.957 141.353 129.191 129.118 c 135.117 123.193
 142.996 119.927 151.379 119.927 c 159.762 119.927 167.641 123.193 173.566
 129.118 c 179.496 135.044 182.758 142.923 182.758 151.306 c 182.758 159.689
 179.496 167.568 173.566 173.493 c h
156.598 146.091 m 156.062 145.556 154.434 143.927 151.379 143.927 c 148.324
 143.927 146.695 145.556 146.16 146.087 c 143.285 148.966 143.285 153.65
 146.16 156.525 c 151.379 161.743 l 156.598 156.525 l 157.133 155.99 158.758
 154.361 158.758 151.306 c 158.758 148.251 157.133 146.626 156.598 146.091
 c h
156.598 146.091 m f
201.852 201.779 m 159.863 243.767 l 155.18 248.454 147.578 248.454 142.895
 243.767 c 100.906 201.779 l 87.441 188.318 80.027 170.392 80.027 151.306
 c 80.027 132.224 87.441 114.298 100.906 100.833 c 114.391 87.353 132.312
 79.927 151.379 79.927 c 170.445 79.927 188.367 87.353 201.852 100.833 c
 215.332 114.318 222.758 132.243 222.758 151.306 c 222.758 170.372 215.332
 188.298 201.852 201.779 c h
184.879 117.806 m 175.93 108.857 164.035 103.927 151.379 103.927 c 138.723
 103.927 126.824 108.857 117.875 117.806 c 99.402 136.279 99.402 166.337
 117.875 184.81 c 151.379 218.31 l 184.879 184.81 l 193.828 175.861 198.758
 163.962 198.758 151.306 c 198.758 138.654 193.828 126.755 184.879 117.806
 c h
184.879 117.806 m f
230.137 230.064 m 159.863 300.337 l 157.613 302.587 154.562 303.853 151.379
 303.853 c 148.195 303.853 145.145 302.587 142.895 300.337 c 72.625 230.064
 l 51.586 209.029 40 181.056 40 151.306 c 40 121.556 51.586 93.587 72.625
 72.552 c 93.66 51.513 121.629 39.927 151.379 39.927 c 181.129 39.927 209.102
 51.513 230.137 72.552 c 251.172 93.587 262.758 121.556 262.758 151.306 
c 262.758 181.056 251.172 209.029 230.137 230.064 c h
213.164 89.521 m 196.66 73.017 174.719 63.927 151.379 63.927 c 128.039 
63.927 106.098 73.017 89.594 89.521 c 73.09 106.025 64 127.966 64 151.306
 c 64 174.646 73.09 196.591 89.594 213.095 c 151.379 274.88 l 213.164 213.095
 l 229.668 196.591 238.758 174.646 238.758 151.306 c 238.758 127.966 229.668
 106.025 213.164 89.521 c h
213.164 89.521 m f
Q Q
showpage
%%Trailer
end restore
%%EOF
