%!PS-Adobe-3.0 EPSF-3.0
%%Creator: cairo 1.14.2 (http://cairographics.org)
%%CreationDate: Mon Apr  4 09:16:07 2016
%%Pages: 1
%%DocumentData: Clean7Bit
%%LanguageLevel: 2
%%BoundingBox: 0 -1 265 358
%%EndComments
%%BeginProlog
save
50 dict begin
/q { gsave } bind def
/Q { grestore } bind def
/cm { 6 array astore concat } bind def
/w { setlinewidth } bind def
/J { setlinecap } bind def
/j { setlinejoin } bind def
/M { setmiterlimit } bind def
/d { setdash } bind def
/m { moveto } bind def
/l { lineto } bind def
/c { curveto } bind def
/h { closepath } bind def
/re { exch dup neg 3 1 roll 5 3 roll moveto 0 rlineto
      0 exch rlineto 0 rlineto closepath } bind def
/S { stroke } bind def
/f { fill } bind def
/f* { eofill } bind def
/n { newpath } bind def
/W { clip } bind def
/W* { eoclip } bind def
/BT { } bind def
/ET { } bind def
/pdfmark where { pop globaldict /?pdfmark /exec load put }
    { globaldict begin /?pdfmark /pop load def /pdfmark
    /cleartomark load def end } ifelse
/BDC { mark 3 1 roll /BDC pdfmark } bind def
/EMC { mark /EMC pdfmark } bind def
/cairo_store_point { /cairo_point_y exch def /cairo_point_x exch def } def
/Tj { show currentpoint cairo_store_point } bind def
/TJ {
  {
    dup
    type /stringtype eq
    { show } { -0.001 mul 0 cairo_font_matrix dtransform rmoveto } ifelse
  } forall
  currentpoint cairo_store_point
} bind def
/cairo_selectfont { cairo_font_matrix aload pop pop pop 0 0 6 array astore
    cairo_font exch selectfont cairo_point_x cairo_point_y moveto } bind def
/Tf { pop /cairo_font exch def /cairo_font_matrix where
      { pop cairo_selectfont } if } bind def
/Td { matrix translate cairo_font_matrix matrix concatmatrix dup
      /cairo_font_matrix exch def dup 4 get exch 5 get cairo_store_point
      /cairo_font where { pop cairo_selectfont } if } bind def
/Tm { 2 copy 8 2 roll 6 array astore /cairo_font_matrix exch def
      cairo_store_point /cairo_font where { pop cairo_selectfont } if } bind def
/g { setgray } bind def
/rg { setrgbcolor } bind def
/d1 { setcachedevice } bind def
%%EndProlog
%%BeginSetup
%%EndSetup
%%Page: 1 1
%%BeginPageSetup
%%PageBoundingBox: 0 -1 265 358
%%EndPageSetup
q 0 -1 265 359 rectclip q
0 g
263.211 218.836 m 261.836 222.301 258.926 224.93 255.34 225.949 c 238.637
 230.699 224.242 228.746 213.602 225.289 c 213.602 291.961 l 213.602 311.367
 197.816 327.156 178.41 327.156 c 174.438 327.156 170.621 326.484 167.055
 325.266 c 165.371 343.113 150.305 357.129 132.023 357.129 c 113.742 357.129
 98.676 343.113 96.992 325.266 c 93.43 326.484 89.613 327.156 85.641 327.156
 c 66.234 327.156 50.445 311.367 50.445 291.961 c 50.445 225.289 l 39.809
 228.746 25.41 230.699 8.711 225.949 c 5.133 224.933 2.234 222.301 0.855
 218.848 c -0.527 215.394 -0.219 211.484 1.672 208.281 c 1.906 207.883 25.145
 167.91 25.145 111.797 c 25.145 106.879 l 25.145 47.945 73.09 -0 132.023
 -0 c 190.957 -0 238.902 47.945 238.902 106.879 c 238.902 111.797 l 238.902
 167.91 262.141 207.887 262.363 208.262 c 264.273 211.461 264.586 215.371
 263.211 218.836 c h
214.902 111.797 m 214.902 106.879 l 214.902 61.176 177.723 24 132.023 24
 c 86.324 24 49.145 61.176 49.145 106.879 c 49.145 111.797 l 49.145 153.207
 38.027 186.359 30.09 204.75 c 44.547 204.316 54.023 197.312 54.922 196.625
 c 58.488 193.644 63.375 193.062 67.594 195.023 c 71.824 196.992 74.445 
201.308 74.445 205.973 c 74.445 291.961 l 74.445 298.133 79.469 303.156 
85.641 303.156 c 91.812 303.156 96.832 298.133 96.832 291.961 c 96.832 179.266
 l 96.832 172.641 102.203 167.266 108.832 167.266 c 115.461 167.266 120.832
 172.641 120.832 179.266 c 120.832 321.937 l 120.832 328.105 125.852 333.129
 132.023 333.129 c 138.195 333.129 143.219 328.109 143.219 321.937 c 143.219
 179.266 l 143.219 172.641 148.59 167.266 155.219 167.266 c 161.844 167.266
 167.219 172.641 167.219 179.266 c 167.219 291.961 l 167.219 298.133 172.238
 303.156 178.41 303.156 c 184.582 303.156 189.602 298.133 189.602 291.961
 c 189.602 205.973 l 189.602 201.305 192.227 196.992 196.457 195.023 c 200.676
 193.062 205.562 193.644 209.129 196.625 c 210.027 197.312 219.5 204.316
 233.961 204.75 c 226.02 186.359 214.902 153.207 214.902 111.797 c h
214.902 111.797 m f
65.84 120.75 m 61.156 116.062 61.156 108.465 65.84 103.777 c 83.52 86.098
 107.023 76.363 132.023 76.363 c 157.023 76.363 180.527 86.101 198.207 103.777
 c 200.457 106.027 201.723 109.082 201.723 112.262 c 201.723 115.445 200.457
 118.496 198.207 120.75 c 161.715 157.242 102.336 157.242 65.84 120.75 c
 h
118.387 122.781 m 116.137 119.863 114.781 116.223 114.781 112.262 c 114.781
 108.305 116.137 104.66 118.391 101.746 c 109.492 103.512 100.871 107.008
 93.094 112.262 c 100.871 117.516 109.492 121.016 118.387 122.781 c h
145.66 101.746 m 147.914 104.66 149.27 108.301 149.27 112.262 c 149.27 
116.223 147.914 119.863 145.66 122.781 c 154.559 121.016 163.176 117.519
 170.957 112.262 c 163.176 107.008 154.559 103.512 145.66 101.746 c h
145.66 101.746 m f
12.027 240.019 m 15.188 240.019 18.273 241.301 20.508 243.531 c 22.746 
245.773 24.027 248.859 24.027 252.019 c 24.027 255.18 22.746 258.277 20.508
 260.508 c 18.273 262.742 15.188 264.019 12.027 264.019 c 8.867 264.019 
5.77 262.742 3.539 260.508 c 1.305 258.269 0.027 255.18 0.027 252.019 c 
0.027 248.859 1.305 245.773 3.539 243.531 c 5.77 241.301 8.867 240.019 12.027
 240.019 c h
12.027 240.019 m f
252.027 240.019 m 255.188 240.019 258.273 241.301 260.508 243.531 c 262.746
 245.773 264.027 248.859 264.027 252.019 c 264.027 255.18 262.746 258.269
 260.508 260.508 c 258.273 262.742 255.188 264.019 252.027 264.019 c 248.867
 264.019 245.77 262.742 243.539 260.508 c 241.305 258.277 240.027 255.18
 240.027 252.019 c 240.027 248.859 241.305 245.773 243.539 243.531 c 245.77
 241.301 248.867 240.019 252.027 240.019 c h
252.027 240.019 m f
Q Q
showpage
%%Trailer
end restore
%%EOF
